<?xml version="1.0" standalone="no"?>
<!DOCTYPE svg PUBLIC "-//W3C//DTD SVG 1.1//EN" "http://www.w3.org/Graphics/SVG/1.1/DTD/svg11.dtd" >
<svg xmlns="http://www.w3.org/2000/svg" xmlns:xlink="http://www.w3.org/1999/xlink" version="1.1">
<metadata>
Created by FontForge 20161013 at Wed Feb 25 08:56:45 2015
 By ,,,
Copyright (c) 1989 Adobe Systems Incorporated.  All Rights Reserved.Avenir is a registered trademark of Linotype AG and/or its subsidiaries.
</metadata>
<defs>
<font id="Avenir-MediumOblique" horiz-adv-x="1138" >
  <font-face 
    font-family="Avenir Medium"
    font-weight="500"
    font-style="oblique"
    font-stretch="normal"
    units-per-em="2048"
    panose-1="0 0 0 0 0 0 0 0 0 0"
    ascent="1638"
    descent="-410"
    x-height="971"
    cap-height="1450"
    bbox="-98 -578 2048 1892"
    underline-thickness="102"
    underline-position="-357"
    slope="-8"
    unicode-range="U+0020-FB02"
  />
<missing-glyph horiz-adv-x="748" 
d="M68 0v1365h544v-1365h-544zM136 68h408v1229h-408v-1229z" />
    <glyph glyph-name=".notdef" horiz-adv-x="748" 
d="M68 0v1365h544v-1365h-544zM136 68h408v1229h-408v-1229z" />
    <glyph glyph-name="glyph1" horiz-adv-x="0" 
 />
    <glyph glyph-name="glyph2" horiz-adv-x="682" 
 />
    <glyph glyph-name="space" unicode=" " horiz-adv-x="569" 
 />
    <glyph glyph-name="exclam" unicode="!" horiz-adv-x="569" 
d="M150 123q0 55 40 95t95 40t95 -40t40 -95t-40 -95t-95 -40t-95 40t-40 95zM182 418v1032h197v-1032h-197z" />
    <glyph glyph-name="quotedbl" unicode="&#x22;" horiz-adv-x="1062" 
d="M299 946v504h160v-504h-160zM604 946v504h160v-504h-160z" />
    <glyph glyph-name="numbersign" unicode="#" 
d="M51 418v160h217l41 294h-194v160h217l57 418h162l-57 -418h237l57 418h162l-57 -418h194v-160h-217l-41 -294h195v-160h-217l-57 -418h-162l57 418h-237l-58 -418h-162l58 418h-195zM430 578h238l41 294h-238z" />
    <glyph glyph-name="dollar" unicode="$" 
d="M53 172l158 141q45 -75 125 -119t168 -47v504q-91 23 -160 54t-130.5 79t-94.5 120.5t-33 166.5q0 112 59.5 203t153.5 141.5t205 59.5v147h110v-147q117 0 224 -39.5t182 -118.5l-148 -143q-46 60 -113.5 93.5t-144.5 35.5v-484l-4 -2q59 -16 100 -29.5t92 -34t84.5 -42
t68.5 -53t55.5 -68t33.5 -86t13 -107.5q0 -181 -128.5 -296t-314.5 -126v-147h-110v147q-298 0 -451 197zM283 1071q0 -160 221 -223v455q-100 -15 -160.5 -76.5t-60.5 -155.5zM614 147q106 13 176 77.5t70 164.5q0 50 -20 89.5t-58.5 66.5t-76 44t-91.5 34v-476z" />
    <glyph glyph-name="percent" unicode="%" horiz-adv-x="1744" 
d="M76 1124q0 151 105.5 257t256.5 106t257 -106t106 -257t-106 -256.5t-257 -105.5t-256.5 105.5t-105.5 256.5zM236 1124q0 -85 58.5 -143.5t143.5 -58.5t144 58.5t59 143.5t-59 144t-144 59t-143.5 -59t-58.5 -144zM358 0l912 1516l123 -64l-912 -1515zM944 326
q0 151 106 256.5t257 105.5t256.5 -105.5t105.5 -256.5t-105.5 -257t-256.5 -106t-257 106t-106 257zM1104 326q0 -85 59 -144t144 -59t143.5 59t58.5 144t-58.5 143.5t-143.5 58.5t-144 -58.5t-59 -143.5z" />
    <glyph glyph-name="ampersand" unicode="&#x26;" horiz-adv-x="1478" 
d="M96 383q0 259 330 416q-54 58 -86.5 101t-58 105.5t-25.5 129.5q0 159 112 249.5t275 90.5q161 0 268 -85.5t107 -242.5q0 -215 -301 -373l287 -299l182 297h223l-281 -434l330 -338h-264l-178 193q-97 -116 -201 -173t-244 -57q-119 0 -212 35.5t-149 95.5t-85 134
t-29 155zM305 389q0 -104 83.5 -179t189.5 -75q166 0 321 184l-350 365q-45 -26 -71.5 -43t-64 -46.5t-57.5 -57t-35.5 -66.5t-15.5 -82zM453 1133q0 -34 12.5 -68t37 -67t43.5 -54.5t50 -52.5q40 22 63 35.5t58.5 40t54.5 50t34 58t15 72.5q0 71 -49 113.5t-127 42.5
q-82 0 -137 -45.5t-55 -124.5z" />
    <glyph glyph-name="quotesingle" unicode="'" horiz-adv-x="569" 
d="M205 946v504h160v-504h-160z" />
    <glyph glyph-name="parenleft" unicode="(" horiz-adv-x="569" 
d="M98 590q0 237 77 473.5t222 435.5l123 -78q-138 -217 -200 -404.5t-62 -426.5q0 -226 66.5 -438t195.5 -390l-123 -81q-143 195 -221 428t-78 481z" />
    <glyph glyph-name="parenright" unicode=")" horiz-adv-x="569" 
d="M49 -242q138 216 200 404.5t62 427.5q0 226 -66.5 437t-195.5 390l123 82q143 -195 221 -428t78 -481q0 -237 -77 -473.5t-222 -435.5z" />
    <glyph glyph-name="asterisk" unicode="*" horiz-adv-x="950" 
d="M72 1114l43 133l288 -98v301h148v-301l285 96l43 -137l-285 -92l180 -244l-112 -84l-187 250l-182 -246l-113 84l182 240z" />
    <glyph glyph-name="plus" unicode="+" horiz-adv-x="1363" 
d="M135 541v159h467v467h160v-467h467v-159h-467v-467h-160v467h-467z" />
    <glyph glyph-name="comma" unicode="," horiz-adv-x="569" 
d="M98 -270l142 503h198l-172 -503h-168z" />
    <glyph glyph-name="hyphen" unicode="-" horiz-adv-x="647" 
d="M72 410v172h503v-172h-503z" />
    <glyph glyph-name="period" unicode="." horiz-adv-x="569" 
d="M150 123q0 55 40 95t95 40t95 -40t40 -95t-40 -95t-95 -40t-95 40t-40 95z" />
    <glyph glyph-name="slash" unicode="/" horiz-adv-x="796" 
d="M0 -37l655 1577l142 -53l-654 -1577z" />
    <glyph glyph-name="zero" unicode="0" 
d="M70 725q0 73 6 142t21 145t39.5 141.5t63.5 126t89.5 103t122 67.5t157.5 25t157.5 -25t122 -67.5t90 -103t63.5 -126t39.5 -141.5t21.5 -145t6 -142q0 -70 -6 -138t-21.5 -144t-39.5 -141.5t-63.5 -127t-90 -104.5t-122 -69t-157.5 -26t-157.5 26t-122 69t-90 104.5
t-63.5 127t-39 141.5t-21 144t-6 138zM266 725q0 -47 2.5 -91.5t10 -104.5t20.5 -111t36 -102.5t54 -87.5t77 -58.5t103 -22.5t103 22.5t77 58.5t54 87.5t36 102.5t20.5 111t10 104.5t2.5 91.5q0 50 -2.5 96t-10 106t-20.5 110.5t-36 101t-54 85.5t-77 57t-103 22t-103 -22
t-77 -57t-54 -85.5t-36 -101t-20.5 -110.5t-10 -106t-2.5 -96z" />
    <glyph glyph-name="one" unicode="1" 
d="M172 1116l403 334h175v-1450h-197v1225l-266 -246z" />
    <glyph glyph-name="two" unicode="2" 
d="M94 0v209l582 577q160 156 160 297q0 105 -72 168.5t-178 63.5q-105 0 -175 -60t-89 -163l-213 18q28 186 156.5 281.5t322.5 95.5q128 0 229.5 -44t164 -136.5t62.5 -221.5q0 -68 -19.5 -131.5t-59 -121t-77.5 -101t-95 -98.5l-478 -461h729v-172h-950z" />
    <glyph glyph-name="three" unicode="3" 
d="M94 291l207 63q37 -109 96 -158t170 -49q117 0 199 74t82 189q0 58 -17 103.5t-48.5 74t-68.5 48t-87 28.5t-92.5 12.5t-94.5 3.5v172q110 0 184 15t114 45.5t56.5 70t16.5 96.5q0 112 -68 174t-176 62q-79 0 -143.5 -46t-97.5 -122l-201 67q55 134 171.5 203.5
t266.5 69.5q91 0 170 -24.5t141 -72t98 -124.5t36 -174q0 -114 -69 -205t-179 -123v-4q133 -23 208.5 -125t75.5 -240q0 -101 -39 -182.5t-106.5 -132.5t-154 -78t-183.5 -27q-173 0 -296 78.5t-171 237.5z" />
    <glyph glyph-name="four" unicode="4" 
d="M70 319v201l577 930h238v-958h205v-173h-205v-319h-197v319h-618zM242 492h446v725h-4z" />
    <glyph glyph-name="five" unicode="5" 
d="M70 268l198 68q72 -189 269 -189q120 0 201 81t81 216q0 154 -95 236t-255 82q-59 0 -144 -20.5t-155 -55.5l16 764h779v-184h-588l-6 -363q29 13 91.5 22t102.5 9q203 0 327 -133t124 -346q0 -141 -68.5 -251.5t-184.5 -169.5t-257 -59q-150 0 -268 77t-168 216z" />
    <glyph glyph-name="six" unicode="6" 
d="M72 442q0 123 35 216t110 212l367 580h231l-364 -561h8q67 33 159 33q81 0 158.5 -28t143.5 -82t106.5 -144.5t40.5 -204.5q0 -116 -39.5 -210t-108 -154t-158 -92t-192.5 -32q-136 0 -249 57t-180.5 164.5t-67.5 245.5zM268 449q0 -133 83.5 -217.5t217.5 -84.5
t217.5 84.5t83.5 217.5t-83.5 217t-217.5 84t-217.5 -84t-83.5 -217z" />
    <glyph glyph-name="seven" unicode="7" 
d="M86 1278v172h911v-168l-577 -1282h-221l587 1278h-700z" />
    <glyph glyph-name="eight" unicode="8" 
d="M96 416q0 131 77.5 226t199.5 128v6q-93 25 -160.5 111.5t-67.5 226.5q0 106 59 189.5t155 127.5t210 44t210 -44t155 -127.5t59 -189.5q0 -140 -67 -226.5t-160 -111.5v-6q122 -33 199 -128t77 -226q0 -201 -135 -321t-338 -120t-338 120t-135 321zM293 416
q0 -123 79.5 -196t196.5 -73q123 0 200 75t77 194q0 127 -78 196.5t-199 71.5q-120 -2 -198 -77.5t-78 -190.5zM342 1085q0 -91 62 -160t165 -69q108 0 168 66.5t60 162.5q0 100 -63.5 165t-164.5 65q-95 0 -161 -65t-66 -165z" />
    <glyph glyph-name="nine" unicode="9" 
d="M72 987q0 154 68 266.5t179 167t250 54.5q209 0 353.5 -130t144.5 -337q0 -123 -35 -216t-110 -212l-367 -580h-231l364 561h-8q-67 -33 -160 -33q-81 0 -158.5 28t-143.5 82t-106 144.5t-40 204.5zM268 1001q0 -133 83.5 -217t217.5 -84t217.5 84t83.5 217t-83.5 217.5
t-217.5 84.5t-217.5 -84.5t-83.5 -217.5z" />
    <glyph glyph-name="colon" unicode=":" horiz-adv-x="569" 
d="M150 123q0 55 40 95t95 40t95 -40t40 -95t-40 -95t-95 -40t-95 40t-40 95zM150 848q0 56 40 95.5t95 39.5t95 -39.5t40 -95.5t-40 -95.5t-95 -39.5t-95 39.5t-40 95.5z" />
    <glyph glyph-name="semicolon" unicode=";" horiz-adv-x="569" 
d="M98 -270l142 503h198l-172 -503h-168zM150 846q0 56 40 95.5t95 39.5t95 -39.5t40 -95.5t-40 -95.5t-95 -39.5t-95 39.5t-40 95.5z" />
    <glyph glyph-name="less" unicode="&#x3c;" horiz-adv-x="1363" 
d="M135 537v168l1094 450v-162l-926 -372l926 -373v-160z" />
    <glyph glyph-name="equal" unicode="=" horiz-adv-x="1363" 
d="M135 379v160h1094v-160h-1094zM135 700v160h1094v-160h-1094z" />
    <glyph glyph-name="greater" unicode="&#x3e;" horiz-adv-x="1363" 
d="M135 86v162l926 373l-926 372v160l1094 -448v-168z" />
    <glyph glyph-name="question" unicode="?" horiz-adv-x="1024" 
d="M98 1106q26 177 148 279t303 102q178 0 293.5 -101.5t115.5 -277.5q0 -136 -86 -246l-122 -127q-1 0 -21 -18q-65 -61 -83 -98.5t-19 -122.5v-90h-197v124q0 54 6.5 89.5t24.5 66t39.5 53.5t61.5 62q9 8 13 12q7 7 42 40.5t46 45t36.5 41.5t34.5 49.5t18.5 49t9.5 59.5
q0 93 -63 155t-154 62q-98 0 -162 -63.5t-76 -166.5zM391 123q0 55 39.5 95t95.5 40t96 -40t40 -95t-40 -95t-96 -40t-95.5 40t-39.5 95z" />
    <glyph glyph-name="at" unicode="@" horiz-adv-x="1638" 
d="M90 729q0 155 60.5 295.5t163 241.5t243 161t293.5 60q189 0 348.5 -79.5t254.5 -223.5t95 -320q0 -100 -31.5 -193t-82.5 -161t-114 -119.5t-129 -77.5t-124 -26q-54 0 -91 35t-38 96h-8q-52 -56 -118.5 -93.5t-135.5 -37.5q-127 0 -204 92t-77 229q0 101 33 198.5
t91 174.5t146 124.5t189 47.5q75 0 134 -38.5t85 -117.5h4l33 117h150l-173 -567q-10 -33 -10 -51q0 -50 60 -50q57 0 115.5 54t97.5 149t39 199q0 117 -43 214t-117 159.5t-171 96.5t-206 34q-172 0 -310 -83.5t-215 -228t-77 -319.5q0 -178 81 -321t221 -222.5t310 -79.5
q149 0 277 54.5t200 152.5h162q-57 -102 -158.5 -180t-228 -120t-256.5 -42q-159 0 -301.5 60t-245 162t-162 244t-59.5 300zM567 610q0 -164 146 -164q79 0 145 60t100.5 143.5t34.5 163.5q0 77 -33.5 128.5t-95.5 51.5q-93 0 -162 -55.5t-102 -141t-33 -186.5z" />
    <glyph glyph-name="A" unicode="A" horiz-adv-x="1441" 
d="M2 0l639 1450h178l621 -1450h-230l-145 358h-690l-144 -358h-229zM444 530h549l-270 666h-4z" />
    <glyph glyph-name="B" unicode="B" horiz-adv-x="1290" 
d="M186 0v1450h504q129 0 226.5 -38.5t155.5 -122t58 -202.5q0 -120 -66.5 -200t-182.5 -119v-4q132 -9 222.5 -112.5t90.5 -248.5q0 -126 -69 -219t-183.5 -138.5t-257.5 -45.5h-498zM383 172h289q40 0 78.5 5.5t82.5 22t76.5 43t54 71.5t21.5 104q0 126 -82.5 192
t-228.5 66h-291v-504zM383 848h268q122 0 196.5 52.5t74.5 164.5q0 92 -58.5 152.5t-171.5 60.5h-309v-430z" />
    <glyph glyph-name="C" unicode="C" horiz-adv-x="1441" 
d="M96 713q0 223 95.5 399.5t268 275.5t392.5 99q150 0 287 -57t221 -168l-164 -125q-61 78 -155 122t-195 44q-159 0 -283.5 -78.5t-191 -212.5t-66.5 -299q0 -154 63.5 -281.5t188.5 -206t289 -78.5q240 0 379 195l166 -125q-17 -24 -41.5 -50t-75 -64.5t-108 -67.5
t-144 -50.5t-180.5 -21.5q-134 0 -254 43t-208.5 116.5t-153 169t-97.5 203.5t-33 218z" />
    <glyph glyph-name="D" unicode="D" horiz-adv-x="1517" 
d="M154 0v1450h505q127 0 234.5 -26.5t184.5 -70.5t137.5 -104.5t98.5 -125.5t62.5 -137.5t34.5 -136t10 -124.5q0 -112 -32.5 -217.5t-98.5 -198t-159 -161.5t-223 -108.5t-281 -39.5h-473zM350 184h248q126 0 236 35t195 101t134 170.5t49 234.5q0 43 -6.5 88t-24 99.5
t-44.5 103t-71.5 95t-101.5 80.5t-139.5 54.5t-179.5 20.5h-295v-1082z" />
    <glyph glyph-name="E" unicode="E" horiz-adv-x="1251" 
d="M186 0v1450h936v-184h-739v-432h688v-185h-688v-465h776v-184h-973z" />
    <glyph glyph-name="F" unicode="F" horiz-adv-x="1175" 
d="M186 0v1450h912v-184h-715v-455h666v-184h-666v-627h-197z" />
    <glyph glyph-name="G" unicode="G" horiz-adv-x="1593" 
d="M96 725q0 213 96 387t269.5 274.5t390.5 100.5q192 0 322 -48.5t219 -140.5l-140 -149q-159 154 -401 154q-162 0 -288 -78.5t-192.5 -209.5t-66.5 -290q0 -121 43.5 -228.5t118 -184t179 -121t222.5 -44.5q221 0 357 76v404h-322v184h518v-715q-101 -62 -255.5 -97.5
t-293.5 -35.5q-180 0 -328 61t-245 165.5t-150 242.5t-53 293z" />
    <glyph glyph-name="H" unicode="H" horiz-adv-x="1517" 
d="M186 0v1450h197v-602h752v602h196v-1450h-196v664h-752v-664h-197z" />
    <glyph glyph-name="I" unicode="I" horiz-adv-x="569" 
d="M186 0v1450h197v-1450h-197z" />
    <glyph glyph-name="J" unicode="J" horiz-adv-x="987" 
d="M18 281l193 43q18 -83 69.5 -130t131.5 -47q56 0 98 19t66.5 49t39 75.5t19 89t4.5 97.5v973h197v-1036q0 -105 -29 -187t-73 -130t-103 -79.5t-112.5 -43t-106.5 -11.5q-157 0 -261 81t-133 237z" />
    <glyph glyph-name="K" unicode="K" horiz-adv-x="1327" 
d="M186 0v1450h197v-627h16l641 627h275l-701 -670l748 -780h-287l-676 725h-16v-725h-197z" />
    <glyph glyph-name="L" unicode="L" horiz-adv-x="1062" 
d="M186 0v1450h197v-1266h666v-184h-863z" />
    <glyph glyph-name="M" unicode="M" horiz-adv-x="1855" 
d="M172 0v1450h293l461 -1098h8l457 1098h292v-1450h-196v1192h-4l-490 -1192h-131l-489 1192h-4v-1192h-197z" />
    <glyph glyph-name="N" unicode="N" horiz-adv-x="1630" 
d="M186 0v1450h258l799 -1192h4v1192h197v-1450h-250l-807 1192h-4v-1192h-197z" />
    <glyph glyph-name="O" unicode="O" horiz-adv-x="1703" 
d="M96 725q0 213 96 387t269.5 274.5t390.5 100.5t390.5 -100.5t269.5 -274.5t96 -387t-96 -387t-269.5 -274.5t-390.5 -100.5t-390.5 100.5t-269.5 274.5t-96 387zM305 725q0 -159 66.5 -290t192.5 -209.5t288 -78.5t288 78.5t192.5 209.5t66.5 290t-66.5 290t-192.5 209.5
t-288 78.5t-288 -78.5t-192.5 -209.5t-66.5 -290z" />
    <glyph glyph-name="P" unicode="P" horiz-adv-x="1214" 
d="M186 0v1450h510q107 0 190.5 -25t134 -65t83 -95t45 -108.5t12.5 -112.5t-12.5 -112.5t-45 -108.5t-83 -94.5t-134 -64.5t-190.5 -25h-313v-639h-197zM383 811h258q51 0 92.5 5t84 20.5t70.5 40.5t46 67.5t18 99.5t-18 100t-46 68t-70.5 40.5t-84 20.5t-92.5 5h-258v-467
z" />
    <glyph glyph-name="Q" unicode="Q" horiz-adv-x="1703" 
d="M96 741q0 210 98.5 381t270.5 268t381 97q151 0 287.5 -55.5t235.5 -151t157.5 -231t58.5 -287.5q0 -125 -37.5 -239t-113.5 -206.5t-181 -140.5v-4h430v-172h-835q-153 0 -291 55.5t-239.5 152.5t-161.5 235.5t-60 297.5zM305 758q0 -158 67.5 -288.5t190.5 -208
t277 -77.5q155 0 278.5 76.5t190.5 206t67 287.5q0 152 -69 277.5t-192 198.5t-275 73q-149 0 -272 -73t-193 -198t-70 -274z" />
    <glyph glyph-name="R" unicode="R" horiz-adv-x="1251" 
d="M186 0v1450h510q107 0 190.5 -25t134 -65t83 -95t45 -108.5t12.5 -112.5q0 -93 -42.5 -175t-125 -138.5t-188.5 -68.5l412 -662h-246l-369 639h-219v-639h-197zM383 811h258q51 0 92.5 5t84 20.5t70.5 40.5t46 67.5t18 99.5t-18 100t-46 68t-70.5 40.5t-84 20.5t-92.5 5
h-258v-467z" />
    <glyph glyph-name="S" unicode="S" 
d="M68 164l161 139q51 -77 133.5 -116.5t174.5 -39.5q68 0 132 26t110 83t46 133q0 53 -24.5 92.5t-65.5 64.5t-95 45t-113 38.5t-118 40t-113 55.5t-95 79t-65.5 116t-24.5 161q0 53 17 107.5t56 108.5t94.5 96t139.5 68t184 26q133 0 237.5 -36.5t180.5 -129.5l-160 -145
q-37 58 -106 92.5t-152 34.5q-77 0 -135 -21.5t-88.5 -56.5t-45 -71t-14.5 -73q0 -58 24.5 -102t66 -71t95 -47.5t113 -38t118.5 -37t112.5 -50t95 -70.5t66 -105t24.5 -148q0 -137 -68 -240t-181.5 -156t-254.5 -53q-145 0 -268 51t-194 150z" />
    <glyph glyph-name="T" unicode="T" horiz-adv-x="1175" 
d="M23 1266v184h1130v-184h-467v-1266h-197v1266h-466z" />
    <glyph glyph-name="U" unicode="U" horiz-adv-x="1441" 
d="M160 530v920h196v-889q0 -57 11.5 -112.5t38.5 -111t67.5 -97t104.5 -67.5t143 -26t142.5 26t104 67.5t68 97t38.5 111t11 112.5v889h197v-920q0 -249 -160.5 -408t-400.5 -159t-400.5 159t-160.5 408z" />
    <glyph glyph-name="V" unicode="V" horiz-adv-x="1290" 
d="M-12 1450h227l426 -1180h4l442 1180h216l-572 -1450h-184z" />
    <glyph glyph-name="W" unicode="W" horiz-adv-x="1970" 
d="M2 1450h205l319 -1159h4l342 1159h226l342 -1159h4l319 1159h205l-422 -1450h-207l-352 1184h-4l-350 -1184h-207z" />
    <glyph glyph-name="X" unicode="X" horiz-adv-x="1327" 
d="M-4 0l526 762l-487 688h252l377 -557l372 557h246l-483 -686l532 -764h-258l-416 629l-417 -629h-244z" />
    <glyph glyph-name="Y" unicode="Y" horiz-adv-x="1253" 
d="M-20 1450h251l396 -637l407 637h240l-549 -832v-618h-197v618z" />
    <glyph glyph-name="Z" unicode="Z" horiz-adv-x="1214" 
d="M66 0v184l825 1082h-801v184h1047v-184l-822 -1082h834v-184h-1083z" />
    <glyph glyph-name="bracketleft" unicode="[" horiz-adv-x="569" 
d="M147 -319v1818h357v-135h-185v-1548h185v-135h-357z" />
    <glyph glyph-name="backslash" unicode="\" horiz-adv-x="796" 
d="M0 1487l141 53l656 -1577l-144 -53z" />
    <glyph glyph-name="bracketright" unicode="]" horiz-adv-x="569" 
d="M66 -184h184v1548h-184v135h356v-1818h-356v135z" />
    <glyph glyph-name="asciicircum" unicode="^" horiz-adv-x="1363" 
d="M164 565l436 885h164l436 -885h-170l-348 723l-348 -723h-170z" />
    <glyph glyph-name="underscore" unicode="_" horiz-adv-x="1024" 
d="M0 -154h1024v-102h-1024v102z" />
    <glyph glyph-name="grave" unicode="`" horiz-adv-x="491" 
d="M-94 1450h262l213 -295h-170z" />
    <glyph glyph-name="a" unicode="a" horiz-adv-x="1062" 
d="M92 266q0 91 41.5 157.5t116.5 104.5t168.5 56t208.5 18h135v41q0 83 -60.5 144t-171.5 61q-23 0 -43.5 -1.5t-40.5 -7t-34 -8.5t-33 -13t-27.5 -13.5t-27.5 -16.5t-23.5 -16t-24.5 -18.5t-22 -16.5l-111 115q74 70 177 106.5t208 36.5q104 0 184 -26.5t127.5 -72.5
t71 -102.5t23.5 -121.5v-496q0 -108 8 -176h-164q-6 74 -6 147h-4q-60 -91 -143 -131.5t-197 -40.5q-92 0 -167 33t-122 100t-47 158zM276 281q0 -158 209 -158q73 0 129 25.5t87 67.5t46 90t15 100v61h-98q-388 0 -388 -186z" />
    <glyph glyph-name="b" unicode="b" horiz-adv-x="1251" 
d="M139 0v1548h185v-717h4q49 75 141.5 119.5t196.5 44.5q221 0 357 -144t136 -366q0 -107 -35 -200.5t-98 -162t-156 -108t-204 -39.5q-100 0 -192.5 43.5t-145.5 120.5h-4v-139h-185zM324 485q0 -150 86.5 -244t232.5 -94t233 94t87 244t-87 244t-233 94t-232.5 -94
t-86.5 -244z" />
    <glyph glyph-name="c" unicode="c" horiz-adv-x="987" 
d="M92 481q0 225 141 368.5t367 143.5q109 0 206 -38.5t167 -114.5l-139 -127q-102 108 -242 108q-144 0 -223.5 -99.5t-79.5 -244.5q0 -140 86.5 -235t226.5 -95q144 0 236 109l131 -131q-136 -150 -369 -150q-224 0 -366 141t-142 365z" />
    <glyph glyph-name="d" unicode="d" horiz-adv-x="1251" 
d="M92 485q0 221 136.5 365.5t357.5 144.5q104 0 196.5 -44.5t141.5 -119.5h4v717h184v-1548h-184v139h-4q-53 -77 -145.5 -120.5t-192.5 -43.5q-147 0 -260.5 67.5t-173.5 183.5t-60 259zM289 485q0 -150 86.5 -244t232.5 -94t233 94t87 244t-87 244t-233 94t-232.5 -94
t-86.5 -244z" />
    <glyph glyph-name="e" unicode="e" 
d="M82 485q0 219 142.5 364.5t359.5 145.5q99 0 180 -29.5t134.5 -78.5t90 -116t52.5 -139t16 -149v-65h-778q0 -124 97.5 -203.5t229.5 -79.5q147 0 266 146l140 -107q-153 -199 -430 -199q-226 0 -363 144.5t-137 365.5zM279 565h581q-3 127 -74.5 205t-205.5 78
q-129 0 -215 -89.5t-86 -193.5z" />
    <glyph glyph-name="f" unicode="f" horiz-adv-x="681" 
d="M2 811v160h209v217q0 198 77 291.5t255 93.5q77 0 137 -14l-21 -164q-45 18 -104 18q-94 0 -126 -53t-32 -166v-223h219v-160h-221v-811h-184v811h-209z" />
    <glyph glyph-name="g" unicode="g" horiz-adv-x="1251" 
d="M152 744q60 116 173.5 183.5t260.5 67.5q100 0 192.5 -43.5t145.5 -120.5h4v140h184v-963q0 -221 -146.5 -360.5t-383.5 -139.5q-287 0 -476 175l125 155q148 -157 347 -157q98 0 169.5 28.5t109 78.5t54.5 106t17 122v144h-6q-51 -84 -141 -128t-195 -44q-140 0 -254 65
t-178 179q-62 111 -62 249q0 147 60 263zM289 485q0 -148 86 -236.5t233 -88.5t233.5 88.5t86.5 236.5q0 150 -87 244t-233 94t-232.5 -94t-86.5 -244z" />
    <glyph glyph-name="h" unicode="h" 
d="M139 0v1548h185v-727h4q36 78 122 126t197 48q152 0 252 -93.5t100 -276.5v-625h-184v573q0 128 -62.5 189t-158.5 61q-122 0 -196 -80.5t-74 -242.5v-500h-185z" />
    <glyph glyph-name="i" unicode="i" horiz-adv-x="491" 
d="M111 1319q0 55 39.5 95t95.5 40t95.5 -40t39.5 -95t-39.5 -95t-95.5 -40t-95.5 40t-39.5 95zM154 0v971h184v-971h-184z" />
    <glyph glyph-name="j" unicode="j" horiz-adv-x="491" 
d="M-78 -473l21 170q46 -16 75 -16q73 0 104.5 46.5t31.5 141.5v1102h184v-1110q0 -23 -0.5 -38.5t-3 -46t-7.5 -52t-15.5 -51.5t-25 -51t-37.5 -44t-51.5 -37.5t-68.5 -23.5t-88 -9q-66 0 -119 19zM111 1319q0 55 39.5 95t95.5 40t95.5 -40t39.5 -95t-39.5 -95t-95.5 -40
t-95.5 40t-39.5 95z" />
    <glyph glyph-name="k" unicode="k" horiz-adv-x="1062" 
d="M139 0v1548h185v-999l417 420h256l-452 -441l491 -528h-262l-450 504v-504h-185z" />
    <glyph glyph-name="l" unicode="l" horiz-adv-x="491" 
d="M154 0v1548h184v-1548h-184z" />
    <glyph glyph-name="m" unicode="m" horiz-adv-x="1744" 
d="M139 0v971h172v-152h4q7 23 32.5 52t64.5 57.5t96.5 47.5t118.5 19q211 0 303 -180q45 86 130 133t177 47q369 0 369 -430v-565h-185v541q0 48 -4.5 86t-18 76t-36 63.5t-60.5 41t-90 15.5q-128 0 -187.5 -78t-59.5 -215v-530h-185v508q0 61 -4 104.5t-17 85.5t-35 68
t-59.5 41.5t-89.5 15.5q-107 0 -179 -81.5t-72 -237.5v-504h-185z" />
    <glyph glyph-name="n" unicode="n" 
d="M139 0v971h185v-150h4q36 78 122 126t197 48q152 0 252 -93.5t100 -276.5v-625h-184v573q0 128 -62.5 189t-158.5 61q-122 0 -196 -80.5t-74 -242.5v-500h-185z" />
    <glyph glyph-name="o" unicode="o" horiz-adv-x="1216" 
d="M92 485q0 139 68 256.5t187 185.5t261 68t261 -68t187 -185.5t68 -256.5t-68 -256.5t-187 -185.5t-261 -68t-261 68t-187 185.5t-68 256.5zM289 485q0 -150 86.5 -244t232.5 -94t233 94t87 244t-87 244t-233 94t-232.5 -94t-86.5 -244z" />
    <glyph glyph-name="p" unicode="p" horiz-adv-x="1251" 
d="M139 -578v1549h185v-140h4q53 77 145.5 120.5t192.5 43.5q111 0 204 -39.5t156 -108t98 -162t35 -200.5q0 -222 -136 -366t-357 -144q-104 0 -196.5 44.5t-141.5 119.5h-4v-717h-185zM324 485q0 -150 86.5 -244t232.5 -94t233 94t87 244t-87 244t-233 94t-232.5 -94
t-86.5 -244z" />
    <glyph glyph-name="q" unicode="q" horiz-adv-x="1251" 
d="M92 485q0 143 60 259t173.5 183.5t260.5 67.5q100 0 192.5 -43.5t145.5 -120.5h4v140h184v-1438h-184v606h-4q-49 -75 -141.5 -119.5t-196.5 -44.5q-221 0 -357.5 144.5t-136.5 365.5zM289 485q0 -150 86.5 -244t232.5 -94t233 94t87 244t-87 244t-233 94t-232.5 -94
t-86.5 -244z" />
    <glyph glyph-name="r" unicode="r" horiz-adv-x="757" 
d="M139 0v971h185v-150h4q35 76 117 125t173 49q44 0 82 -12l-8 -199q-58 15 -90 15q-278 0 -278 -312v-487h-185z" />
    <glyph glyph-name="s" unicode="s" horiz-adv-x="909" 
d="M57 147l140 115q54 -54 108.5 -84.5t126.5 -30.5q78 0 137.5 32t59.5 91q0 20 -7.5 37.5t-17 30t-29 24t-32.5 18t-39.5 14.5t-37.5 10.5t-38.5 8.5t-32.5 7q-55 14 -92.5 26t-79.5 34t-67 49.5t-41.5 70t-16.5 96.5q0 73 32 131.5t85 94.5t117.5 54.5t134.5 18.5
q105 0 193.5 -39t138.5 -120l-144 -109q-78 96 -198 96q-68 0 -115 -29t-47 -79q0 -24 8.5 -44t27 -34.5t35.5 -24.5t46 -18.5t45.5 -12.5t47 -10t38.5 -8q66 -16 112.5 -35.5t87.5 -51.5t61.5 -80.5t20.5 -114.5q0 -79 -34 -139.5t-91 -96t-125 -53t-143 -17.5
q-126 0 -216 39t-159 133z" />
    <glyph glyph-name="t" unicode="t" horiz-adv-x="757" 
d="M-2 811v160h213v272h184v-272h264v-160h-264v-440q0 -36 1 -55.5t4.5 -50.5t12.5 -48t24 -35.5t39.5 -26.5t58.5 -8q84 0 131 29v-168q-29 -17 -79 -25t-87 -8q-46 0 -84.5 6.5t-67 16.5t-50.5 28t-36 34.5t-24 43t-15.5 46t-8 51t-3 51.5t-0.5 53v506h-213z" />
    <glyph glyph-name="u" unicode="u" 
d="M139 346v625h185v-574q0 -128 62.5 -189t158.5 -61q122 0 196 81t74 243v500h184v-971h-184v150h-4q-36 -78 -122 -126.5t-197 -48.5q-72 0 -134.5 22t-112 66t-78 116.5t-28.5 166.5z" />
    <glyph glyph-name="v" unicode="v" horiz-adv-x="1024" 
d="M23 971h213l290 -744l279 744h196l-380 -971h-203z" />
    <glyph glyph-name="w" unicode="w" horiz-adv-x="1554" 
d="M23 971h206l220 -725h4l231 725h195l245 -725h4l209 725h195l-313 -971h-187l-256 725h-4l-231 -725h-199z" />
    <glyph glyph-name="x" unicode="x" horiz-adv-x="1062" 
d="M12 0l394 518l-345 453h238l236 -344l231 344h223l-332 -453l394 -518h-238l-287 408l-286 -408h-228z" />
    <glyph glyph-name="y" unicode="y" horiz-adv-x="1024" 
d="M23 971h213l288 -758h4l275 758h198l-460 -1180q-23 -58 -41 -95t-46 -76.5t-60 -61.5t-79 -36t-106 -14q-95 0 -164 27l23 168q55 -22 110 -22q81 0 119 38t70 121l59 154z" />
    <glyph glyph-name="z" unicode="z" horiz-adv-x="948" 
d="M72 0v166l551 645h-533v160h758v-164l-555 -647h584v-160h-805z" />
    <glyph glyph-name="braceleft" unicode="{" horiz-adv-x="681" 
d="M82 508v160q71 0 119.5 64.5t52.5 174.5v324q0 123 66 195.5t149 72.5h154v-147h-93q-55 0 -79.5 -51t-24.5 -127v-310q2 -66 -17 -120t-50 -84t-57 -46t-48 -22v-6q17 -2 37 -10.5t45.5 -29t45.5 -49.5t33 -78t11 -108v-307q0 -73 24.5 -124.5t79.5 -51.5h93v-147h-154
q-86 0 -150.5 80t-64.5 233v274q-4 110 -52.5 175t-119.5 65z" />
    <glyph glyph-name="bar" unicode="|" horiz-adv-x="454" 
d="M147 -37v1585h160v-1585h-160z" />
    <glyph glyph-name="braceright" unicode="}" horiz-adv-x="681" 
d="M59 -172h93q55 0 79.5 51t24.5 127v309q-2 54 11 100t33 75t45.5 51t45.5 32.5t37 14.5v6q-22 3 -48.5 17t-57 43t-49.5 85t-17 129v308q0 73 -24.5 124.5t-79.5 51.5h-93v147h154q86 0 150.5 -80t64.5 -233v-275q0 -109 50 -174t122 -65v-160q-72 0 -122 -65.5
t-50 -174.5v-323q0 -123 -66 -195.5t-149 -72.5h-154v147z" />
    <glyph glyph-name="asciitilde" unicode="~" horiz-adv-x="1363" 
d="M197 594q52 87 116 133.5t156 46.5q87 0 231 -74q3 -1 23.5 -12t24.5 -13t22 -10.5t24 -11t21.5 -9t23.5 -8.5t20.5 -5.5t23 -4.5t20.5 -1q107 0 182 149l82 -127q-106 -180 -262 -180q-37 0 -82 12t-74.5 25t-80.5 37q-55 26 -79.5 37t-65.5 23.5t-72 12.5
q-59 0 -99 -40.5t-73 -106.5z" />
    <glyph glyph-name="uni00A0" unicode="&#xa0;" horiz-adv-x="569" 
 />
    <glyph glyph-name="exclamdown" unicode="&#xa1;" horiz-adv-x="569" 
d="M150 872q0 56 40 96t95 40t95 -40t40 -96t-40 -95.5t-95 -39.5t-95 39.5t-40 95.5zM190 -455v1033h197v-1033h-197z" />
    <glyph glyph-name="cent" unicode="&#xa2;" 
d="M147 485q0 207 119.5 344t323.5 166v135h110v-135q100 -5 191 -45t151 -110l-133 -121q-41 49 -97 82.5t-112 34.5v-701q131 3 218 107l120 -119q-117 -132 -338 -148v-135h-110v135q-201 20 -322 163t-121 347zM332 489q0 -131 69.5 -231t188.5 -123v701
q-122 -19 -190 -117.5t-68 -229.5z" />
    <glyph glyph-name="sterling" unicode="&#xa3;" 
d="M147 0v172h209v500h-196v147h196v205q0 91 29 171.5t84 143t142 99.5t196 37q213 0 346 -127l-125 -144q-102 99 -201 99q-119 0 -196.5 -80t-77.5 -248v-156h332v-147h-332v-500h504v-172h-910z" />
    <glyph glyph-name="currency" unicode="&#xa4;" 
d="M43 317l100 101q-100 136 -100 309t100 309l-100 101l117 114l100 -98q141 100 309 100q172 0 310 -100l100 98l117 -114l-101 -101q101 -137 101 -309t-101 -309l101 -101l-117 -116l-100 100q-132 -100 -310 -100q-170 0 -309 100l-100 -100zM203 727
q0 -152 107 -259.5t259 -107.5t259.5 107.5t107.5 259.5t-107.5 259.5t-259.5 107.5t-259 -107.5t-107 -259.5z" />
    <glyph glyph-name="yen" unicode="&#xa5;" 
d="M-10 1450h205l366 -647l379 647h209l-381 -633h238v-135h-316l-35 -57v-109h351v-135h-351v-381h-172v381h-350v135h350v109l-34 57h-316v135h234z" />
    <glyph glyph-name="brokenbar" unicode="&#xa6;" horiz-adv-x="454" 
d="M147 -37v623h160v-623h-160zM147 926v622h160v-622h-160z" />
    <glyph glyph-name="section" unicode="&#xa7;" 
d="M127 -47l178 84q27 -81 94 -120.5t160 -39.5q86 0 146.5 44.5t60.5 133.5q0 43 -33.5 80t-86.5 66t-117.5 57.5t-129 61.5t-117.5 70.5t-86.5 91.5t-33.5 118q0 116 52 189t148 120q-163 91 -163 242q0 80 36 145.5t95.5 106t132.5 62.5t151 22q120 0 223.5 -51.5
t151.5 -153.5l-172 -94q-25 62 -79.5 93.5t-127.5 33.5q-86 0 -144 -40.5t-58 -119.5q0 -49 33.5 -89t86.5 -69t117.5 -57t129 -61t117.5 -72.5t86.5 -100t33.5 -135.5q0 -87 -45 -156.5t-125 -111.5q133 -90 133 -248q0 -85 -36.5 -153.5t-98 -110.5t-137 -64t-158.5 -22
q-143 0 -254 61.5t-164 186.5zM346 657q0 -23 5.5 -43.5t12.5 -35.5t23 -31t25.5 -24.5t32.5 -22t32.5 -18t36.5 -17.5t33 -16l158 -76q51 32 86.5 80.5t35.5 99.5q0 36 -14 65t-43 53t-51 37.5t-60 32.5l-161 78q-69 -27 -110.5 -64t-41.5 -98z" />
    <glyph glyph-name="dieresis" unicode="&#xa8;" horiz-adv-x="491" 
d="M-90 1346q0 49 39 82.5t88 33.5t88 -33.5t39 -82.5q0 -56 -36 -92.5t-91 -36.5t-91 36.5t-36 92.5zM328 1346q0 49 39 82.5t88 33.5t88 -33.5t39 -82.5q0 -56 -36 -92.5t-91 -36.5t-91 36.5t-36 92.5z" />
    <glyph glyph-name="copyright" unicode="&#xa9;" horiz-adv-x="1638" 
d="M57 725q0 155 60.5 296t162.5 243t243 162.5t296 60.5t296 -60.5t243 -162.5t162.5 -243t60.5 -296t-60.5 -296t-162.5 -243t-243 -162.5t-296 -60.5t-296 60.5t-243 162.5t-162.5 243t-60.5 296zM193 725q0 -127 49.5 -243.5t133.5 -200.5t200 -133.5t243 -49.5
q170 0 314.5 84t228.5 228.5t84 314.5t-84 314.5t-228.5 228.5t-314.5 84q-127 0 -243 -49.5t-200 -133.5t-133.5 -200.5t-49.5 -243.5zM371 731q0 214 117.5 340.5t330.5 126.5q156 0 259.5 -80.5t127.5 -232.5h-157q-45 166 -228 166q-143 0 -217 -83.5t-74 -232.5
q0 -138 80 -230.5t215 -92.5q186 0 224 174h157q-33 -148 -134 -235t-247 -87q-211 0 -332.5 128.5t-121.5 338.5z" />
    <glyph glyph-name="ordfeminine" unicode="&#xaa;" horiz-adv-x="690" 
d="M70 1034q0 42 15 75.5t37 55t58 37.5t68 24t77 12.5t75 5.5t71 1h25v21q0 42 -37.5 70t-102.5 28q-108 0 -182 -68l-72 93q100 86 252 86q86 0 143.5 -16.5t85 -47t38 -63t10.5 -76.5v-402h-135v91l-4 2q-50 -105 -205 -105q-90 0 -153.5 46t-63.5 130zM205 1042
q0 -73 123 -73q83 0 125.5 37.5t42.5 101.5v39h-4q-33 0 -53 -0.5t-54 -2.5t-55.5 -5.5t-47.5 -11.5t-41 -19t-25.5 -27.5t-10.5 -38.5z" />
    <glyph glyph-name="guillemotleft" unicode="&#xab;" horiz-adv-x="1024" 
d="M96 498l297 442l127 -84l-239 -358l241 -359l-127 -84zM502 498l297 442l127 -84l-240 -358l242 -359l-127 -84z" />
    <glyph glyph-name="logicalnot" unicode="&#xac;" horiz-adv-x="1363" 
d="M135 700v160h1094v-571h-160v411h-934z" />
    <glyph glyph-name="uni00AD" unicode="&#xad;" horiz-adv-x="647" 
d="M72 410v172h503v-172h-503z" />
    <glyph glyph-name="registered" unicode="&#xae;" horiz-adv-x="1638" 
d="M57 725q0 155 60.5 296t162.5 243t243 162.5t296 60.5t296 -60.5t243 -162.5t162.5 -243t60.5 -296t-60.5 -296t-162.5 -243t-243 -162.5t-296 -60.5t-296 60.5t-243 162.5t-162.5 243t-60.5 296zM193 725q0 -127 49.5 -243.5t133.5 -200.5t200 -133.5t243 -49.5
q170 0 314.5 84t228.5 228.5t84 314.5t-84 314.5t-228.5 228.5t-314.5 84q-127 0 -243 -49.5t-200 -133.5t-133.5 -200.5t-49.5 -243.5zM526 295v870h336q307 0 307 -262q0 -109 -56.5 -168.5t-151.5 -70.5l227 -369h-168l-217 356h-117v-356h-160zM686 786h117q36 0 60 1.5
t54.5 8.5t48.5 19.5t31 36t13 57.5t-13 57.5t-31 36t-48.5 19t-55 8t-59.5 0.5h-117v-244z" />
    <glyph glyph-name="macron" unicode="&#xaf;" horiz-adv-x="491" 
d="M-49 1229v135h590v-135h-590z" />
    <glyph glyph-name="degree" unicode="&#xb0;" horiz-adv-x="819" 
d="M104 1169q0 126 90 216t216 90t215.5 -90t89.5 -216t-89.5 -215.5t-215.5 -89.5t-216 89.5t-90 215.5zM240 1169q0 -71 50 -120.5t120 -49.5t120 49.5t50 120.5t-50 120.5t-120 49.5t-120 -49.5t-50 -120.5z" />
    <glyph glyph-name="plusminus" unicode="&#xb1;" horiz-adv-x="1363" 
d="M135 104v160h1094v-160h-1094zM135 645v160h467v334h160v-334h467v-160h-467v-307h-160v307h-467z" />
    <glyph glyph-name="uni00B2" unicode="&#xb2;" horiz-adv-x="739" 
d="M53 592v156l367 327q92 83 92 150q0 53 -38 83.5t-95 30.5q-59 0 -97 -32.5t-42 -87.5l-172 12q10 117 95 180.5t216 63.5q134 0 219.5 -63.5t85.5 -182.5q0 -76 -37 -134.5t-108 -119.5l-289 -248h436v-135h-633z" />
    <glyph glyph-name="uni00B3" unicode="&#xb3;" horiz-adv-x="739" 
d="M49 782l170 41q32 -108 154 -108q65 0 111 37t46 94q0 135 -208 131h-35v135h37q40 0 68.5 4t57 15.5t43.5 36t15 61.5q0 49 -37 79.5t-96 30.5q-50 0 -87.5 -24t-54.5 -68l-170 41q29 93 111.5 140t192.5 47q128 0 214.5 -60.5t86.5 -169.5q0 -71 -43.5 -125t-116.5 -71
v-5q86 -10 134 -68.5t48 -141.5q0 -118 -92 -186t-225 -68q-123 0 -208.5 49.5t-115.5 152.5z" />
    <glyph glyph-name="acute" unicode="&#xb4;" horiz-adv-x="491" 
d="M111 1155l213 295h262l-305 -295h-170z" />
    <glyph glyph-name="paragraph" unicode="&#xb6;" horiz-adv-x="1228" 
d="M104 1030q0 198 124.5 309t342.5 111h510v-1708h-159v1573h-230v-1573h-160v909q-186 0 -307 109t-121 270z" />
    <glyph glyph-name="periodcentered" unicode="&#xb7;" horiz-adv-x="569" 
d="M150 621q0 55 40 95t95 40t95 -40t40 -95q0 -56 -40 -96t-95 -40t-95 40t-40 96z" />
    <glyph glyph-name="cedilla" unicode="&#xb8;" horiz-adv-x="491" 
d="M10 -420l39 82q79 -31 160 -31q29 0 55 6.5t48 27t22 52.5q0 37 -19 57.5t-50 24t-61.5 0t-62.5 -13.5l-43 37l125 178h101l-91 -125h60q76 2 132 -36.5t56 -110.5q0 -52 -23 -91.5t-61.5 -61t-81.5 -32t-90 -10.5q-118 0 -215 47z" />
    <glyph glyph-name="uni00B9" unicode="&#xb9;" horiz-adv-x="739" 
d="M55 1274l262 201h146v-883h-148v735l-174 -147z" />
    <glyph glyph-name="ordmasculine" unicode="&#xba;" horiz-adv-x="790" 
d="M59 1165q0 140 91.5 225t244.5 85t244.5 -85t91.5 -225t-91.5 -223.5t-244.5 -83.5t-244.5 83.5t-91.5 223.5zM207 1165q0 -86 49 -135t139 -49t139.5 49t49.5 135t-49.5 136.5t-139.5 50.5q-89 0 -138.5 -50.5t-49.5 -136.5z" />
    <glyph glyph-name="guillemotright" unicode="&#xbb;" horiz-adv-x="1024" 
d="M96 856l127 84l299 -442l-297 -443l-127 84l240 359zM502 856l127 84l299 -442l-297 -443l-127 84l239 359z" />
    <glyph glyph-name="onequarter" unicode="&#xbc;" horiz-adv-x="1708" 
d="M68 1274l262 201h145v-883h-147v735l-174 -147zM311 0l899 1516l123 -66l-899 -1516zM977 193v118l375 572h161v-555h127v-135h-127v-193h-135v193h-401zM1124 328h242v383h-4z" />
    <glyph glyph-name="onehalf" unicode="&#xbd;" horiz-adv-x="1708" 
d="M63 1274l263 201h145v-883h-147v735l-174 -147zM287 0l899 1516l123 -66l-899 -1516zM1012 0v156l366 327q92 83 92 150q0 53 -38 84t-95 31q-59 0 -97 -33t-42 -88l-172 12q10 117 95 180.5t216 63.5q134 0 219.5 -63.5t85.5 -182.5q0 -76 -37 -134.5t-108 -119.5
l-289 -248h437v-135h-633z" />
    <glyph glyph-name="threequarters" unicode="&#xbe;" horiz-adv-x="1708" 
d="M47 782l170 41q32 -108 154 -108q65 0 111 37t46 94q0 135 -209 131h-34v135h37q40 0 68.5 4t57 15.5t43.5 36t15 61.5q0 49 -37 79.5t-96 30.5q-50 0 -87.5 -24t-54.5 -68l-170 41q29 93 111.5 140t192.5 47q128 0 214.5 -60.5t86.5 -169.5q0 -71 -43.5 -125t-116.5 -71
v-5q86 -10 134 -68.5t48 -141.5q0 -118 -92 -186t-225 -68q-123 0 -208.5 49.5t-115.5 152.5zM393 0l899 1516l123 -66l-899 -1516zM1018 193v118l375 572h161v-555h127v-135h-127v-193h-135v193h-401zM1178 328h241v383h-4z" />
    <glyph glyph-name="questiondown" unicode="&#xbf;" horiz-adv-x="1024" 
d="M66 -113q0 136 86 246l122 127q1 1 21 19q65 61 83 98.5t19 122.5v90h197v-125q0 -54 -6.5 -89.5t-24.5 -66t-39.5 -53.5t-61.5 -62q-9 -8 -13 -12q-9 -9 -42.5 -40.5t-45.5 -44t-36.5 -41.5t-34.5 -49.5t-19 -49.5t-9 -59q0 -93 63 -155t154 -62q98 0 162 63t76 166
l209 -21q-26 -177 -148 -279t-303 -102q-178 0 -293.5 101.5t-115.5 277.5zM362 872q0 56 40 96t96 40q55 0 95 -40t40 -96t-39.5 -95.5t-95.5 -39.5t-96 40t-40 95z" />
    <glyph glyph-name="Agrave" unicode="&#xc0;" horiz-adv-x="1441" 
d="M2 0l639 1450h178l621 -1450h-230l-145 358h-690l-144 -358h-229zM381 1827h262l213 -295h-170zM444 530h549l-270 666h-4z" />
    <glyph glyph-name="Aacute" unicode="&#xc1;" horiz-adv-x="1441" 
d="M2 0l639 1450h178l621 -1450h-230l-145 358h-690l-144 -358h-229zM444 530h549l-270 666h-4zM586 1532l213 295h262l-305 -295h-170z" />
    <glyph glyph-name="Acircumflex" unicode="&#xc2;" horiz-adv-x="1441" 
d="M2 0l639 1450h178l621 -1450h-230l-145 358h-690l-144 -358h-229zM383 1532l229 295h217l230 -295h-187l-151 197l-152 -197h-186zM444 530h549l-270 666h-4z" />
    <glyph glyph-name="Atilde" unicode="&#xc3;" horiz-adv-x="1441" 
d="M2 0l639 1450h178l621 -1450h-230l-145 358h-690l-144 -358h-229zM377 1556q15 88 68.5 150.5t138.5 62.5q60 0 172 -47q10 -4 27.5 -11.5t27.5 -11.5t25 -7.5t30 -3.5q75 0 101 90h98q-14 -89 -61.5 -151t-131.5 -62q-55 0 -165 43q-5 2 -24.5 10t-28.5 11l-25.5 8.5
t-30.5 7.5t-27 2q-35 0 -59.5 -26.5t-36.5 -64.5h-98zM444 530h549l-270 666h-4z" />
    <glyph glyph-name="Adieresis" unicode="&#xc4;" horiz-adv-x="1441" 
d="M2 0l639 1450h178l621 -1450h-230l-145 358h-690l-144 -358h-229zM385 1722q0 49 39 83t88 34t88 -34t39 -83q0 -56 -36 -92.5t-91 -36.5t-91 36.5t-36 92.5zM444 530h549l-270 666h-4zM803 1722q0 49 39 83t88 34t88 -34t39 -83q0 -56 -36 -92.5t-91 -36.5t-91 36.5
t-36 92.5z" />
    <glyph glyph-name="Aring" unicode="&#xc5;" horiz-adv-x="1441" 
d="M2 0l639 1450h178l621 -1450h-230l-145 358h-690l-144 -358h-229zM444 530h549l-270 666h-4zM512 1690q0 85 62 143.5t147 58.5q87 0 148.5 -58t60.5 -142q1 -85 -60.5 -144t-148.5 -59q-84 0 -146.5 58.5t-62.5 142.5zM598 1690q0 -48 37 -81.5t86 -33.5t86 33.5
t37 81.5q0 50 -36 83t-87 33t-87 -33t-36 -83z" />
    <glyph glyph-name="AE" unicode="&#xc6;" horiz-adv-x="1972" 
d="M-16 0l938 1450h933v-184h-604v-432h568v-185h-568v-465h629v-184h-825v352h-623l-207 -352h-241zM539 537h516v729h-39z" />
    <glyph glyph-name="Ccedilla" unicode="&#xc7;" horiz-adv-x="1441" 
d="M96 713q0 223 95.5 399.5t268 275.5t392.5 99q150 0 287 -57t221 -168l-164 -125q-61 78 -155 122t-195 44q-159 0 -283.5 -78.5t-191 -212.5t-66.5 -299q0 -154 63.5 -281.5t188.5 -206t289 -78.5q240 0 379 195l166 -125q-17 -24 -41.5 -50t-75 -64.5t-108 -67.5
t-144 -50.5t-180.5 -21.5q-134 0 -254 43t-208.5 116.5t-153 169t-97.5 203.5t-33 218zM526 -420l39 82q79 -31 160 -31q29 0 55 6.5t48 27t22 52.5q0 37 -19 57.5t-50 24t-61.5 0t-62.5 -13.5l-43 37l125 178h101l-90 -125h59q76 2 132 -36.5t56 -110.5q0 -52 -23 -91.5
t-61.5 -61t-81.5 -32t-90 -10.5q-118 0 -215 47z" />
    <glyph glyph-name="Egrave" unicode="&#xc8;" horiz-adv-x="1251" 
d="M186 0v1450h936v-184h-739v-432h688v-185h-688v-465h776v-184h-973zM287 1827h262l213 -295h-170z" />
    <glyph glyph-name="Eacute" unicode="&#xc9;" horiz-adv-x="1251" 
d="M186 0v1450h936v-184h-739v-432h688v-185h-688v-465h776v-184h-973zM492 1532l213 295h262l-305 -295h-170z" />
    <glyph glyph-name="Ecircumflex" unicode="&#xca;" horiz-adv-x="1251" 
d="M186 0v1450h936v-184h-739v-432h688v-185h-688v-465h776v-184h-973zM289 1532l229 295h217l230 -295h-187l-151 197l-152 -197h-186z" />
    <glyph glyph-name="Edieresis" unicode="&#xcb;" horiz-adv-x="1251" 
d="M186 0v1450h936v-184h-739v-432h688v-185h-688v-465h776v-184h-973zM291 1722q0 49 39 83t88 34t88 -34t39 -83q0 -56 -36 -92.5t-91 -36.5t-91 36.5t-36 92.5zM709 1722q0 49 39 83t88 34t88 -34t39 -83q0 -56 -36 -92.5t-91 -36.5t-91 36.5t-36 92.5z" />
    <glyph glyph-name="Igrave" unicode="&#xcc;" horiz-adv-x="569" 
d="M-55 1827h262l213 -295h-170zM186 0v1450h197v-1450h-197z" />
    <glyph glyph-name="Iacute" unicode="&#xcd;" horiz-adv-x="569" 
d="M150 1532l212 295h263l-306 -295h-169zM186 0v1450h197v-1450h-197z" />
    <glyph glyph-name="Icircumflex" unicode="&#xce;" horiz-adv-x="569" 
d="M-53 1532l229 295h217l230 -295h-187l-151 197l-152 -197h-186zM186 0v1450h197v-1450h-197z" />
    <glyph glyph-name="Idieresis" unicode="&#xcf;" horiz-adv-x="569" 
d="M-51 1722q0 49 39 83t88 34t88 -34t39 -83q0 -56 -36 -92.5t-91 -36.5t-91 36.5t-36 92.5zM186 0v1450h197v-1450h-197zM367 1722q0 49 39 83t88 34t88 -34t39 -83q0 -56 -36 -92.5t-91 -36.5t-91 36.5t-36 92.5z" />
    <glyph glyph-name="Eth" unicode="&#xd0;" horiz-adv-x="1517" 
d="M6 688v135h148v627h505q127 0 234.5 -26.5t184.5 -70.5t137.5 -104.5t98.5 -125.5t62.5 -137.5t34.5 -136t10 -124.5q0 -112 -32.5 -217.5t-98.5 -198t-159 -161.5t-223 -108.5t-281 -39.5h-473v688h-148zM350 184h248q126 0 236 35t195 101t134 170.5t49 234.5
q0 43 -6.5 88t-24 99.5t-44.5 103t-71.5 95t-101.5 80.5t-139.5 54.5t-179.5 20.5h-295v-443h479v-135h-479v-504z" />
    <glyph glyph-name="Ntilde" unicode="&#xd1;" horiz-adv-x="1630" 
d="M186 0v1450h258l799 -1192h4v1192h197v-1450h-250l-807 1192h-4v-1192h-197zM471 1556q15 88 68.5 150.5t138.5 62.5q60 0 172 -47q10 -4 28 -12t27.5 -11.5t25 -7t30.5 -3.5q74 0 100 90h98q-6 -41 -20 -77.5t-36.5 -68t-57.5 -49.5t-78 -18q-56 0 -166 43
q-6 2 -24.5 9.5t-28 11.5t-25.5 9t-30 7t-27 2q-35 0 -60 -26.5t-37 -64.5h-98z" />
    <glyph glyph-name="Ograve" unicode="&#xd2;" horiz-adv-x="1703" 
d="M96 725q0 213 96 387t269.5 274.5t390.5 100.5t390.5 -100.5t269.5 -274.5t96 -387t-96 -387t-269.5 -274.5t-390.5 -100.5t-390.5 100.5t-269.5 274.5t-96 387zM305 725q0 -159 66.5 -290t192.5 -209.5t288 -78.5t288 78.5t192.5 209.5t66.5 290t-66.5 290t-192.5 209.5
t-288 78.5t-288 -78.5t-192.5 -209.5t-66.5 -290zM512 1827h262l213 -295h-170z" />
    <glyph glyph-name="Oacute" unicode="&#xd3;" horiz-adv-x="1703" 
d="M96 725q0 213 96 387t269.5 274.5t390.5 100.5t390.5 -100.5t269.5 -274.5t96 -387t-96 -387t-269.5 -274.5t-390.5 -100.5t-390.5 100.5t-269.5 274.5t-96 387zM305 725q0 -159 66.5 -290t192.5 -209.5t288 -78.5t288 78.5t192.5 209.5t66.5 290t-66.5 290t-192.5 209.5
t-288 78.5t-288 -78.5t-192.5 -209.5t-66.5 -290zM717 1532l213 295h262l-305 -295h-170z" />
    <glyph glyph-name="Ocircumflex" unicode="&#xd4;" horiz-adv-x="1703" 
d="M96 725q0 213 96 387t269.5 274.5t390.5 100.5t390.5 -100.5t269.5 -274.5t96 -387t-96 -387t-269.5 -274.5t-390.5 -100.5t-390.5 100.5t-269.5 274.5t-96 387zM305 725q0 -159 66.5 -290t192.5 -209.5t288 -78.5t288 78.5t192.5 209.5t66.5 290t-66.5 290t-192.5 209.5
t-288 78.5t-288 -78.5t-192.5 -209.5t-66.5 -290zM514 1532l229 295h218l229 -295h-186l-152 197l-152 -197h-186z" />
    <glyph glyph-name="Otilde" unicode="&#xd5;" horiz-adv-x="1703" 
d="M96 725q0 213 96 387t269.5 274.5t390.5 100.5t390.5 -100.5t269.5 -274.5t96 -387t-96 -387t-269.5 -274.5t-390.5 -100.5t-390.5 100.5t-269.5 274.5t-96 387zM305 725q0 -159 66.5 -290t192.5 -209.5t288 -78.5t288 78.5t192.5 209.5t66.5 290t-66.5 290t-192.5 209.5
t-288 78.5t-288 -78.5t-192.5 -209.5t-66.5 -290zM508 1556q15 88 68.5 150.5t138.5 62.5q60 0 172 -47q10 -4 27.5 -11.5t27.5 -11.5t25 -7.5t30 -3.5q75 0 101 90h98q-6 -41 -20 -77.5t-36.5 -68t-57.5 -49.5t-78 -18q-56 0 -166 43q-5 2 -24.5 10t-28.5 11l-25.5 8.5
t-30.5 7.5t-27 2q-35 0 -59.5 -26.5t-36.5 -64.5h-98z" />
    <glyph glyph-name="Odieresis" unicode="&#xd6;" horiz-adv-x="1703" 
d="M96 725q0 213 96 387t269.5 274.5t390.5 100.5t390.5 -100.5t269.5 -274.5t96 -387t-96 -387t-269.5 -274.5t-390.5 -100.5t-390.5 100.5t-269.5 274.5t-96 387zM305 725q0 -159 66.5 -290t192.5 -209.5t288 -78.5t288 78.5t192.5 209.5t66.5 290t-66.5 290t-192.5 209.5
t-288 78.5t-288 -78.5t-192.5 -209.5t-66.5 -290zM516 1722q0 49 39 83t88 34t88 -34t39 -83q0 -56 -36 -92.5t-91 -36.5t-91 36.5t-36 92.5zM934 1722q0 49 39 83t88 34t88 -34t39 -83q0 -56 -36 -92.5t-91 -36.5t-91 36.5t-36 92.5z" />
    <glyph glyph-name="multiply" unicode="&#xd7;" horiz-adv-x="1363" 
d="M135 1055l113 112l434 -434l436 434l111 -112l-434 -434l434 -435l-115 -112l-432 434l-432 -434l-111 114l430 433z" />
    <glyph glyph-name="Oslash" unicode="&#xd8;" horiz-adv-x="1703" 
d="M96 725q0 213 96 387t269.5 274.5t390.5 100.5q269 0 471 -156l170 185l86 -78l-170 -185q95 -101 147 -237t52 -291q0 -213 -96 -387t-269.5 -274.5t-390.5 -100.5q-277 0 -479 162l-172 -186l-88 77l174 191q-191 213 -191 518zM305 725q0 -214 119 -371l766 834
q-144 115 -338 115q-162 0 -288 -78.5t-192.5 -209.5t-66.5 -290zM504 268q146 -121 348 -121q162 0 288 78.5t192.5 209.5t66.5 290q0 223 -127 381z" />
    <glyph glyph-name="Ugrave" unicode="&#xd9;" horiz-adv-x="1441" 
d="M160 530v920h196v-889q0 -57 11.5 -112.5t38.5 -111t67.5 -97t104.5 -67.5t143 -26t142.5 26t104 67.5t68 97t38.5 111t11 112.5v889h197v-920q0 -249 -160.5 -408t-400.5 -159t-400.5 159t-160.5 408zM381 1827h262l213 -295h-170z" />
    <glyph glyph-name="Uacute" unicode="&#xda;" horiz-adv-x="1441" 
d="M160 530v920h196v-889q0 -57 11.5 -112.5t38.5 -111t67.5 -97t104.5 -67.5t143 -26t142.5 26t104 67.5t68 97t38.5 111t11 112.5v889h197v-920q0 -249 -160.5 -408t-400.5 -159t-400.5 159t-160.5 408zM586 1532l213 295h262l-305 -295h-170z" />
    <glyph glyph-name="Ucircumflex" unicode="&#xdb;" horiz-adv-x="1441" 
d="M160 530v920h196v-889q0 -57 11.5 -112.5t38.5 -111t67.5 -97t104.5 -67.5t143 -26t142.5 26t104 67.5t68 97t38.5 111t11 112.5v889h197v-920q0 -249 -160.5 -408t-400.5 -159t-400.5 159t-160.5 408zM383 1532l229 295h217l230 -295h-187l-151 197l-152 -197h-186z" />
    <glyph glyph-name="Udieresis" unicode="&#xdc;" horiz-adv-x="1441" 
d="M160 530v920h196v-889q0 -57 11.5 -112.5t38.5 -111t67.5 -97t104.5 -67.5t143 -26t142.5 26t104 67.5t68 97t38.5 111t11 112.5v889h197v-920q0 -249 -160.5 -408t-400.5 -159t-400.5 159t-160.5 408zM385 1722q0 49 39 83t88 34t88 -34t39 -83q0 -56 -36 -92.5
t-91 -36.5t-91 36.5t-36 92.5zM803 1722q0 49 39 83t88 34t88 -34t39 -83q0 -56 -36 -92.5t-91 -36.5t-91 36.5t-36 92.5z" />
    <glyph glyph-name="Yacute" unicode="&#xdd;" horiz-adv-x="1253" 
d="M-20 1450h251l396 -637l407 637h240l-549 -832v-618h-197v618zM492 1532l213 295h262l-305 -295h-170z" />
    <glyph glyph-name="Thorn" unicode="&#xde;" horiz-adv-x="1214" 
d="M186 0v1450h197v-297h313q107 0 190.5 -25t134 -64.5t83 -94.5t45 -108.5t12.5 -112.5t-12.5 -112.5t-45 -108.5t-83 -95t-134 -65t-190.5 -25h-313v-342h-197zM383 514h258q51 0 92.5 5t84 20.5t70.5 40.5t46 68t18 100t-18 99.5t-46 67.5t-70.5 40.5t-84 20.5t-92.5 5
h-258v-467z" />
    <glyph glyph-name="germandbls" unicode="&#xdf;" horiz-adv-x="1251" 
d="M139 0v1042q0 77 8 140t26.5 125.5t52.5 109t84 82.5t123.5 55t166.5 19q116 0 209 -41.5t150 -127t57 -202.5q0 -123 -60.5 -204t-167.5 -113v-4q51 -8 99 -27.5t94 -55.5t80 -83.5t55 -115.5t21 -148q0 -217 -138.5 -346.5t-357.5 -129.5q-71 0 -145 19v166
q57 -13 108 -13q153 0 244.5 85t91.5 235q0 156 -98.5 236.5t-257.5 80.5h-29v172h33q105 0 168 61t63 163q0 60 -20 104.5t-54 69t-73 36t-82 11.5q-60 0 -106 -16.5t-76 -46t-49 -72.5t-27 -92t-8 -109v-1065h-185z" />
    <glyph glyph-name="agrave" unicode="&#xe0;" horiz-adv-x="1062" 
d="M92 266q0 91 41.5 157.5t116.5 104.5t168.5 56t208.5 18h135v41q0 83 -60.5 144t-171.5 61q-23 0 -43.5 -1.5t-40.5 -7t-34 -8.5t-33 -13t-27.5 -13.5t-27.5 -16.5t-23.5 -16t-24.5 -18.5t-22 -16.5l-111 115q74 70 177 106.5t208 36.5q104 0 184 -26.5t127.5 -72.5
t71 -102.5t23.5 -121.5v-496q0 -108 8 -176h-164q-6 74 -6 147h-4q-60 -91 -143 -131.5t-197 -40.5q-92 0 -167 33t-122 100t-47 158zM193 1450h262l213 -295h-170zM276 281q0 -158 209 -158q73 0 129 25.5t87 67.5t46 90t15 100v61h-98q-388 0 -388 -186z" />
    <glyph glyph-name="aacute" unicode="&#xe1;" horiz-adv-x="1062" 
d="M92 266q0 91 41.5 157.5t116.5 104.5t168.5 56t208.5 18h135v41q0 83 -60.5 144t-171.5 61q-23 0 -43.5 -1.5t-40.5 -7t-34 -8.5t-33 -13t-27.5 -13.5t-27.5 -16.5t-23.5 -16t-24.5 -18.5t-22 -16.5l-111 115q74 70 177 106.5t208 36.5q104 0 184 -26.5t127.5 -72.5
t71 -102.5t23.5 -121.5v-496q0 -108 8 -176h-164q-6 74 -6 147h-4q-60 -91 -143 -131.5t-197 -40.5q-92 0 -167 33t-122 100t-47 158zM276 281q0 -158 209 -158q73 0 129 25.5t87 67.5t46 90t15 100v61h-98q-388 0 -388 -186zM397 1155l213 295h262l-305 -295h-170z" />
    <glyph glyph-name="acircumflex" unicode="&#xe2;" horiz-adv-x="1062" 
d="M92 266q0 91 41.5 157.5t116.5 104.5t168.5 56t208.5 18h135v41q0 83 -60.5 144t-171.5 61q-23 0 -43.5 -1.5t-40.5 -7t-34 -8.5t-33 -13t-27.5 -13.5t-27.5 -16.5t-23.5 -16t-24.5 -18.5t-22 -16.5l-111 115q74 70 177 106.5t208 36.5q104 0 184 -26.5t127.5 -72.5
t71 -102.5t23.5 -121.5v-496q0 -108 8 -176h-164q-6 74 -6 147h-4q-60 -91 -143 -131.5t-197 -40.5q-92 0 -167 33t-122 100t-47 158zM195 1155l229 295h217l229 -295h-186l-152 197l-151 -197h-186zM276 281q0 -158 209 -158q73 0 129 25.5t87 67.5t46 90t15 100v61h-98
q-388 0 -388 -186z" />
    <glyph glyph-name="atilde" unicode="&#xe3;" horiz-adv-x="1062" 
d="M92 266q0 91 41.5 157.5t116.5 104.5t168.5 56t208.5 18h135v41q0 83 -60.5 144t-171.5 61q-23 0 -43.5 -1.5t-40.5 -7t-34 -8.5t-33 -13t-27.5 -13.5t-27.5 -16.5t-23.5 -16t-24.5 -18.5t-22 -16.5l-111 115q74 70 177 106.5t208 36.5q104 0 184 -26.5t127.5 -72.5
t71 -102.5t23.5 -121.5v-496q0 -108 8 -176h-164q-6 74 -6 147h-4q-60 -91 -143 -131.5t-197 -40.5q-92 0 -167 33t-122 100t-47 158zM188 1180q15 88 68.5 150.5t138.5 62.5q60 0 172 -47q11 -4 28 -12t27 -12t25.5 -7.5t30.5 -3.5q74 0 100 90h99q-14 -89 -61.5 -151
t-131.5 -62q-56 0 -166 43q-6 2 -24.5 9.5t-28 11.5t-25.5 9t-30 7t-27 2q-35 0 -59.5 -26t-36.5 -64h-99zM276 281q0 -158 209 -158q73 0 129 25.5t87 67.5t46 90t15 100v61h-98q-388 0 -388 -186z" />
    <glyph glyph-name="adieresis" unicode="&#xe4;" horiz-adv-x="1062" 
d="M92 266q0 91 41.5 157.5t116.5 104.5t168.5 56t208.5 18h135v41q0 83 -60.5 144t-171.5 61q-23 0 -43.5 -1.5t-40.5 -7t-34 -8.5t-33 -13t-27.5 -13.5t-27.5 -16.5t-23.5 -16t-24.5 -18.5t-22 -16.5l-111 115q74 70 177 106.5t208 36.5q104 0 184 -26.5t127.5 -72.5
t71 -102.5t23.5 -121.5v-496q0 -108 8 -176h-164q-6 74 -6 147h-4q-60 -91 -143 -131.5t-197 -40.5q-92 0 -167 33t-122 100t-47 158zM197 1346q0 49 39 82.5t88 33.5t88 -33.5t39 -82.5q0 -56 -36 -92.5t-91 -36.5t-91 36.5t-36 92.5zM276 281q0 -158 209 -158
q73 0 129 25.5t87 67.5t46 90t15 100v61h-98q-388 0 -388 -186zM614 1346q0 49 39 82.5t88 33.5t88 -33.5t39 -82.5q0 -56 -36 -92.5t-91 -36.5t-91 36.5t-36 92.5z" />
    <glyph glyph-name="aring" unicode="&#xe5;" horiz-adv-x="1062" 
d="M92 266q0 91 41.5 157.5t116.5 104.5t168.5 56t208.5 18h135v41q0 83 -60.5 144t-171.5 61q-23 0 -43.5 -1.5t-40.5 -7t-34 -8.5t-33 -13t-27.5 -13.5t-27.5 -16.5t-23.5 -16t-24.5 -18.5t-22 -16.5l-111 115q74 70 177 106.5t208 36.5q104 0 184 -26.5t127.5 -72.5
t71 -102.5t23.5 -121.5v-496q0 -108 8 -176h-164q-6 74 -6 147h-4q-60 -91 -143 -131.5t-197 -40.5q-92 0 -167 33t-122 100t-47 158zM276 281q0 -158 209 -158q73 0 129 25.5t87 67.5t46 90t15 100v61h-98q-388 0 -388 -186zM324 1333q0 85 62 144t146 59q87 0 148.5 -58.5
t60.5 -142.5q1 -85 -60.5 -143.5t-148.5 -58.5q-84 0 -146 58t-62 142zM410 1333q0 -48 36.5 -81t85.5 -33t86 33t37 81q0 50 -36.5 83.5t-86.5 33.5t-86 -33.5t-36 -83.5z" />
    <glyph glyph-name="ae" unicode="&#xe6;" horiz-adv-x="1744" 
d="M80 276q0 82 35 141t95.5 90t127.5 44.5t145 13.5h287v31q0 109 -64 180.5t-180 71.5q-80 0 -142 -27t-132 -84l-115 117q75 68 178.5 104.5t208.5 36.5q110 0 202.5 -37t145.5 -118q136 155 340 155q106 0 189 -35.5t131 -89t79.5 -122.5t42.5 -128.5t11 -115.5v-86
h-723q0 -123 79.5 -209t213.5 -86q84 0 148.5 41.5t103.5 111.5l149 -112q-89 -103 -183.5 -152t-221.5 -49q-261 0 -379 199q-146 -199 -397 -199q-94 0 -168.5 27t-118 72t-66 99.5t-22.5 114.5zM276 276q0 -70 59.5 -117.5t143.5 -47.5q119 0 205 76t86 202v29h-291
q-105 0 -154 -34.5t-49 -107.5zM942 565h526q-3 123 -65 197t-193 74q-125 0 -196.5 -77t-71.5 -194z" />
    <glyph glyph-name="ccedilla" unicode="&#xe7;" horiz-adv-x="987" 
d="M92 481q0 225 141 368.5t367 143.5q109 0 206 -38.5t167 -114.5l-139 -127q-102 108 -242 108q-144 0 -223.5 -99.5t-79.5 -244.5q0 -140 86.5 -235t226.5 -95q144 0 236 109l131 -131q-136 -150 -369 -150q-224 0 -366 141t-142 365zM319 -420l39 82q79 -31 160 -31
q29 0 55 6.5t48 27t22 52.5q0 37 -18.5 57.5t-49.5 24t-61.5 0t-62.5 -13.5l-43 37l124 178h101l-90 -125h59q76 2 132.5 -36.5t56.5 -110.5q0 -52 -23 -91.5t-61.5 -61t-81.5 -32t-90 -10.5q-119 0 -216 47z" />
    <glyph glyph-name="egrave" unicode="&#xe8;" 
d="M82 485q0 219 142.5 364.5t359.5 145.5q99 0 180 -29.5t134.5 -78.5t90 -116t52.5 -139t16 -149v-65h-778q0 -124 97.5 -203.5t229.5 -79.5q147 0 266 146l140 -107q-153 -199 -430 -199q-226 0 -363 144.5t-137 365.5zM229 1450h263l213 -295h-170zM279 565h581
q-3 127 -74.5 205t-205.5 78q-129 0 -215 -89.5t-86 -193.5z" />
    <glyph glyph-name="eacute" unicode="&#xe9;" 
d="M82 485q0 219 142.5 364.5t359.5 145.5q99 0 180 -29.5t134.5 -78.5t90 -116t52.5 -139t16 -149v-65h-778q0 -124 97.5 -203.5t229.5 -79.5q147 0 266 146l140 -107q-153 -199 -430 -199q-226 0 -363 144.5t-137 365.5zM279 565h581q-3 127 -74.5 205t-205.5 78
q-129 0 -215 -89.5t-86 -193.5zM434 1155l213 295h262l-305 -295h-170z" />
    <glyph glyph-name="ecircumflex" unicode="&#xea;" 
d="M82 485q0 219 142.5 364.5t359.5 145.5q99 0 180 -29.5t134.5 -78.5t90 -116t52.5 -139t16 -149v-65h-778q0 -124 97.5 -203.5t229.5 -79.5q147 0 266 146l140 -107q-153 -199 -430 -199q-226 0 -363 144.5t-137 365.5zM231 1155l230 295h217l229 -295h-186l-152 197
l-151 -197h-187zM279 565h581q-3 127 -74.5 205t-205.5 78q-129 0 -215 -89.5t-86 -193.5z" />
    <glyph glyph-name="edieresis" unicode="&#xeb;" 
d="M82 485q0 219 142.5 364.5t359.5 145.5q99 0 180 -29.5t134.5 -78.5t90 -116t52.5 -139t16 -149v-65h-778q0 -124 97.5 -203.5t229.5 -79.5q147 0 266 146l140 -107q-153 -199 -430 -199q-226 0 -363 144.5t-137 365.5zM233 1346q0 49 39 82.5t88 33.5t88 -33.5t39 -82.5
q0 -56 -36 -92.5t-91 -36.5t-91 36.5t-36 92.5zM279 565h581q-3 127 -74.5 205t-205.5 78q-129 0 -215 -89.5t-86 -193.5zM651 1346q0 49 39 82.5t88 33.5t88 -33.5t39 -82.5q0 -56 -36 -92.5t-91 -36.5t-91 36.5t-36 92.5z" />
    <glyph glyph-name="igrave" unicode="&#xec;" horiz-adv-x="491" 
d="M-94 1450h262l213 -295h-170zM154 0v971h184v-971h-184z" />
    <glyph glyph-name="iacute" unicode="&#xed;" horiz-adv-x="491" 
d="M111 1155l213 295h262l-305 -295h-170zM154 0v971h184v-971h-184z" />
    <glyph glyph-name="icircumflex" unicode="&#xee;" horiz-adv-x="491" 
d="M-92 1155l229 295h217l230 -295h-187l-151 197l-152 -197h-186zM154 0v971h184v-971h-184z" />
    <glyph glyph-name="idieresis" unicode="&#xef;" horiz-adv-x="491" 
d="M-90 1346q0 49 39 82.5t88 33.5t88 -33.5t39 -82.5q0 -56 -36 -92.5t-91 -36.5t-91 36.5t-36 92.5zM154 0v971h184v-971h-184zM328 1346q0 49 39 82.5t88 33.5t88 -33.5t39 -82.5q0 -56 -36 -92.5t-91 -36.5t-91 36.5t-36 92.5z" />
    <glyph glyph-name="eth" unicode="&#xf0;" horiz-adv-x="1216" 
d="M92 485q0 139 68 256.5t187 185.5t261 68q167 0 256 -102l4 4q-100 177 -295 369l-219 -107l-96 94l217 109l-174 145l162 95l182 -160l221 106l107 -90l-230 -112q86 -91 150 -176t118.5 -184.5t83.5 -209t29 -225.5q0 -263 -137 -419.5t-379 -156.5q-142 0 -261 68
t-187 185.5t-68 256.5zM289 485q0 -150 86.5 -244t232.5 -94t233 94t87 244t-87 244t-233 94t-232.5 -94t-86.5 -244z" />
    <glyph glyph-name="ntilde" unicode="&#xf1;" 
d="M139 0v971h185v-150h4q36 78 122 126t197 48q152 0 252 -93.5t100 -276.5v-625h-184v573q0 128 -62.5 189t-158.5 61q-122 0 -196 -80.5t-74 -242.5v-500h-185zM225 1180q15 88 68.5 150.5t138.5 62.5q60 0 172 -47q11 -4 28 -12t27 -12t25.5 -7.5t30.5 -3.5q74 0 100 90
h98q-6 -41 -20 -77.5t-36.5 -68t-57.5 -49.5t-78 -18q-56 0 -166 43q-6 2 -24.5 9.5t-28 11.5t-25.5 9t-30 7t-27 2q-35 0 -59.5 -26t-36.5 -64h-99z" />
    <glyph glyph-name="ograve" unicode="&#xf2;" horiz-adv-x="1216" 
d="M92 485q0 139 68 256.5t187 185.5t261 68t261 -68t187 -185.5t68 -256.5t-68 -256.5t-187 -185.5t-261 -68t-261 68t-187 185.5t-68 256.5zM268 1450h262l213 -295h-170zM289 485q0 -150 86.5 -244t232.5 -94t233 94t87 244t-87 244t-233 94t-232.5 -94t-86.5 -244z" />
    <glyph glyph-name="oacute" unicode="&#xf3;" horiz-adv-x="1216" 
d="M92 485q0 139 68 256.5t187 185.5t261 68t261 -68t187 -185.5t68 -256.5t-68 -256.5t-187 -185.5t-261 -68t-261 68t-187 185.5t-68 256.5zM289 485q0 -150 86.5 -244t232.5 -94t233 94t87 244t-87 244t-233 94t-232.5 -94t-86.5 -244zM473 1155l213 295h262l-305 -295
h-170z" />
    <glyph glyph-name="ocircumflex" unicode="&#xf4;" horiz-adv-x="1216" 
d="M92 485q0 139 68 256.5t187 185.5t261 68t261 -68t187 -185.5t68 -256.5t-68 -256.5t-187 -185.5t-261 -68t-261 68t-187 185.5t-68 256.5zM270 1155l230 295h217l229 -295h-186l-152 197l-151 -197h-187zM289 485q0 -150 86.5 -244t232.5 -94t233 94t87 244t-87 244
t-233 94t-232.5 -94t-86.5 -244z" />
    <glyph glyph-name="otilde" unicode="&#xf5;" horiz-adv-x="1216" 
d="M92 485q0 139 68 256.5t187 185.5t261 68t261 -68t187 -185.5t68 -256.5t-68 -256.5t-187 -185.5t-261 -68t-261 68t-187 185.5t-68 256.5zM264 1180q15 88 68.5 150.5t138.5 62.5q60 0 172 -47q11 -4 28 -12t27 -12t25.5 -7.5t30.5 -3.5q74 0 100 90h98
q-6 -41 -20 -77.5t-36.5 -68t-57.5 -49.5t-78 -18q-56 0 -166 43q-6 2 -24.5 9.5t-28 11.5t-25.5 9t-30 7t-27 2q-35 0 -60 -26t-37 -64h-98zM289 485q0 -150 86.5 -244t232.5 -94t233 94t87 244t-87 244t-233 94t-232.5 -94t-86.5 -244z" />
    <glyph glyph-name="odieresis" unicode="&#xf6;" horiz-adv-x="1216" 
d="M92 485q0 139 68 256.5t187 185.5t261 68t261 -68t187 -185.5t68 -256.5t-68 -256.5t-187 -185.5t-261 -68t-261 68t-187 185.5t-68 256.5zM272 1346q0 49 39 82.5t88 33.5t88 -33.5t39 -82.5q0 -56 -36 -92.5t-91 -36.5t-91 36.5t-36 92.5zM289 485q0 -150 86.5 -244
t232.5 -94t233 94t87 244t-87 244t-233 94t-232.5 -94t-86.5 -244zM690 1346q0 49 39 82.5t88 33.5t88 -33.5t39 -82.5q0 -56 -36 -92.5t-91 -36.5t-91 36.5t-36 92.5z" />
    <glyph glyph-name="divide" unicode="&#xf7;" horiz-adv-x="1363" 
d="M135 539v159h1094v-159h-1094zM547 274q0 56 40 96t95 40t95 -40t40 -96t-39.5 -95.5t-95.5 -39.5t-95.5 39.5t-39.5 95.5zM547 963q0 55 39.5 95t95.5 40t95.5 -40t39.5 -95q0 -56 -40 -96t-95 -40t-95 40t-40 96z" />
    <glyph glyph-name="oslash" unicode="&#xf8;" horiz-adv-x="1216" 
d="M84 8l137 139q-61 65 -95 153t-34 185q0 139 68 256.5t187 185.5t261 68q195 0 332 -118l154 153l73 -74l-153 -155q110 -135 110 -316q0 -139 -68 -256.5t-187 -185.5t-261 -68q-169 0 -307 101l-141 -142zM289 485q0 -127 61 -209l467 476q-84 71 -209 71
q-146 0 -232.5 -94t-86.5 -244zM426 203q74 -56 182 -56q146 0 233 94t87 244q0 109 -45 183z" />
    <glyph glyph-name="ugrave" unicode="&#xf9;" 
d="M139 346v625h185v-574q0 -128 62.5 -189t158.5 -61q122 0 196 81t74 243v500h184v-971h-184v150h-4q-36 -78 -122 -126.5t-197 -48.5q-72 0 -134.5 22t-112 66t-78 116.5t-28.5 166.5zM229 1450h263l213 -295h-170z" />
    <glyph glyph-name="uacute" unicode="&#xfa;" 
d="M139 346v625h185v-574q0 -128 62.5 -189t158.5 -61q122 0 196 81t74 243v500h184v-971h-184v150h-4q-36 -78 -122 -126.5t-197 -48.5q-72 0 -134.5 22t-112 66t-78 116.5t-28.5 166.5zM434 1155l213 295h262l-305 -295h-170z" />
    <glyph glyph-name="ucircumflex" unicode="&#xfb;" 
d="M139 346v625h185v-574q0 -128 62.5 -189t158.5 -61q122 0 196 81t74 243v500h184v-971h-184v150h-4q-36 -78 -122 -126.5t-197 -48.5q-72 0 -134.5 22t-112 66t-78 116.5t-28.5 166.5zM231 1155l230 295h217l229 -295h-186l-152 197l-151 -197h-187z" />
    <glyph glyph-name="udieresis" unicode="&#xfc;" 
d="M139 346v625h185v-574q0 -128 62.5 -189t158.5 -61q122 0 196 81t74 243v500h184v-971h-184v150h-4q-36 -78 -122 -126.5t-197 -48.5q-72 0 -134.5 22t-112 66t-78 116.5t-28.5 166.5zM233 1346q0 49 39 82.5t88 33.5t88 -33.5t39 -82.5q0 -56 -36 -92.5t-91 -36.5
t-91 36.5t-36 92.5zM651 1346q0 49 39 82.5t88 33.5t88 -33.5t39 -82.5q0 -56 -36 -92.5t-91 -36.5t-91 36.5t-36 92.5z" />
    <glyph glyph-name="yacute" unicode="&#xfd;" horiz-adv-x="1024" 
d="M23 971h213l288 -758h4l275 758h198l-460 -1180q-23 -58 -41 -95t-46 -76.5t-60 -61.5t-79 -36t-106 -14q-95 0 -164 27l23 168q55 -22 110 -22q81 0 119 38t70 121l59 154zM377 1155l213 295h262l-305 -295h-170z" />
    <glyph glyph-name="thorn" unicode="&#xfe;" horiz-adv-x="1251" 
d="M139 -467v2015h185v-717h4q49 75 141.5 119.5t196.5 44.5q221 0 357 -144t136 -366q0 -107 -35 -200.5t-98 -162t-156 -108t-204 -39.5q-100 0 -192.5 43.5t-145.5 120.5h-4v-606h-185zM324 485q0 -150 86.5 -244t232.5 -94t233 94t87 244t-87 244t-233 94t-232.5 -94
t-86.5 -244z" />
    <glyph glyph-name="ydieresis" unicode="&#xff;" horiz-adv-x="1024" 
d="M23 971h213l288 -758h4l275 758h198l-460 -1180q-23 -58 -41 -95t-46 -76.5t-60 -61.5t-79 -36t-106 -14q-95 0 -164 27l23 168q55 -22 110 -22q81 0 119 38t70 121l59 154zM176 1346q0 49 39 82.5t88 33.5t88 -33.5t39 -82.5q0 -56 -36 -92.5t-91 -36.5t-91 36.5
t-36 92.5zM594 1346q0 49 39 82.5t88 33.5t88 -33.5t39 -82.5q0 -56 -36 -92.5t-91 -36.5t-91 36.5t-36 92.5z" />
    <glyph glyph-name="OE" unicode="&#x152;" horiz-adv-x="2009" 
d="M119 725q0 331 224 528t613 197h910v-184h-602v-432h565v-185h-565v-465h626v-184h-934q-197 0 -356 54t-264 150.5t-161 229.5t-56 291zM328 725q0 -116 40 -214t116 -171.5t193.5 -114.5t264.5 -41h125v1082h-125q-146 0 -264.5 -43.5t-193.5 -118t-115.5 -172
t-40.5 -207.5z" />
    <glyph glyph-name="oe" unicode="&#x153;" horiz-adv-x="1896" 
d="M80 485q0 221 140.5 365.5t363.5 144.5q249 0 393 -186q143 186 383 186q206 0 331.5 -134.5t125.5 -352.5v-90h-736q0 -118 74 -200.5t219 -82.5q165 0 252 141l152 -100q-140 -201 -408 -201q-126 0 -232 47t-165 142q-20 -27 -37 -47t-53 -49t-75.5 -47.5t-101 -32
t-133.5 -13.5q-153 0 -266 67.5t-170 182t-57 260.5zM276 485q0 -149 79 -249.5t218 -100.5q73 0 129.5 20t92.5 52.5t59.5 78.5t33 94.5t9.5 104.5q0 54 -11 104t-35 95.5t-59 79t-87 53t-115 19.5q-151 0 -232.5 -99t-81.5 -252zM1081 565h539q-3 113 -72.5 198t-191.5 85
q-82 0 -147 -46t-96.5 -110t-31.5 -127z" />
    <glyph glyph-name="Ydieresis" unicode="&#x178;" horiz-adv-x="1253" 
d="M-20 1450h251l396 -637l407 637h240l-549 -832v-618h-197v618zM291 1722q0 49 39 83t88 34t88 -34t39 -83q0 -56 -36 -92.5t-91 -36.5t-91 36.5t-36 92.5zM709 1722q0 49 39 83t88 34t88 -34t39 -83q0 -56 -36 -92.5t-91 -36.5t-91 36.5t-36 92.5z" />
    <glyph glyph-name="circumflex" unicode="&#x2c6;" horiz-adv-x="491" 
d="M-92 1155l229 295h217l230 -295h-187l-151 197l-152 -197h-186z" />
    <glyph glyph-name="tilde" unicode="&#x2dc;" horiz-adv-x="491" 
d="M-98 1180q15 88 68.5 150.5t138.5 62.5q60 0 172 -47q9 -4 34 -15t40.5 -15.5t35.5 -4.5q75 0 101 90h98q-14 -89 -61.5 -151t-131.5 -62q-56 0 -166 43q-6 2 -24.5 9.5t-28 11.5t-25.5 9t-30 7t-27 2q-35 0 -59.5 -26t-36.5 -64h-98z" />
    <glyph glyph-name="uni2000" unicode="&#x2000;" horiz-adv-x="946" 
 />
    <glyph glyph-name="uni2001" unicode="&#x2001;" horiz-adv-x="1892" 
 />
    <glyph glyph-name="uni2002" unicode="&#x2002;" horiz-adv-x="946" 
 />
    <glyph glyph-name="uni2003" unicode="&#x2003;" horiz-adv-x="1892" 
 />
    <glyph glyph-name="uni2004" unicode="&#x2004;" horiz-adv-x="630" 
 />
    <glyph glyph-name="uni2005" unicode="&#x2005;" horiz-adv-x="473" 
 />
    <glyph glyph-name="uni2006" unicode="&#x2006;" horiz-adv-x="315" 
 />
    <glyph glyph-name="uni2007" unicode="&#x2007;" horiz-adv-x="315" 
 />
    <glyph glyph-name="uni2008" unicode="&#x2008;" horiz-adv-x="236" 
 />
    <glyph glyph-name="uni2009" unicode="&#x2009;" horiz-adv-x="378" 
 />
    <glyph glyph-name="uni200A" unicode="&#x200a;" horiz-adv-x="105" 
 />
    <glyph glyph-name="uni2010" unicode="&#x2010;" horiz-adv-x="647" 
d="M72 410v172h503v-172h-503z" />
    <glyph glyph-name="uni2011" unicode="&#x2011;" horiz-adv-x="647" 
d="M72 410v172h503v-172h-503z" />
    <glyph glyph-name="figuredash" unicode="&#x2012;" horiz-adv-x="647" 
d="M72 410v172h503v-172h-503z" />
    <glyph glyph-name="endash" unicode="&#x2013;" horiz-adv-x="1024" 
d="M0 418v160h1024v-160h-1024z" />
    <glyph glyph-name="emdash" unicode="&#x2014;" horiz-adv-x="2048" 
d="M0 418v160h2048v-160h-2048z" />
    <glyph glyph-name="quoteleft" unicode="&#x2018;" horiz-adv-x="569" 
d="M115 946l172 504h168l-142 -504h-198z" />
    <glyph glyph-name="quoteright" unicode="&#x2019;" horiz-adv-x="569" 
d="M115 946l141 504h199l-172 -504h-168z" />
    <glyph glyph-name="quotesinglbase" unicode="&#x201a;" horiz-adv-x="569" 
d="M115 -270l141 503h199l-172 -503h-168z" />
    <glyph glyph-name="quotedblleft" unicode="&#x201c;" horiz-adv-x="1062" 
d="M180 946l172 504h168l-141 -504h-199zM543 946l172 504h168l-142 -504h-198z" />
    <glyph glyph-name="quotedblright" unicode="&#x201d;" horiz-adv-x="1062" 
d="M180 946l142 504h198l-172 -504h-168zM543 946l141 504h199l-172 -504h-168z" />
    <glyph glyph-name="quotedblbase" unicode="&#x201e;" horiz-adv-x="1062" 
d="M180 -270l142 503h198l-172 -503h-168zM543 -270l141 503h199l-172 -503h-168z" />
    <glyph glyph-name="bullet" unicode="&#x2022;" horiz-adv-x="1024" 
d="M150 725q0 151 105.5 256.5t256.5 105.5t256.5 -105.5t105.5 -256.5t-105.5 -257t-256.5 -106t-256.5 106t-105.5 257z" />
    <glyph glyph-name="ellipsis" unicode="&#x2026;" horiz-adv-x="2048" 
d="M207 123q0 55 39.5 95t95.5 40t95.5 -40t39.5 -95t-39.5 -95t-95.5 -40t-95.5 40t-39.5 95zM889 123q0 55 39.5 95t95.5 40t95.5 -40t39.5 -95t-39.5 -95t-95.5 -40t-95.5 40t-39.5 95zM1571 123q0 55 39.5 95t95.5 40t95.5 -40t39.5 -95t-39.5 -95t-95.5 -40t-95.5 40
t-39.5 95z" />
    <glyph glyph-name="uni202F" unicode="&#x202f;" horiz-adv-x="378" 
 />
    <glyph glyph-name="guilsinglleft" unicode="&#x2039;" horiz-adv-x="645" 
d="M111 498l297 442l127 -84l-240 -358l242 -359l-127 -84z" />
    <glyph glyph-name="guilsinglright" unicode="&#x203a;" horiz-adv-x="645" 
d="M109 856l127 84l299 -442l-297 -443l-127 84l239 359z" />
    <glyph glyph-name="uni205F" unicode="&#x205f;" horiz-adv-x="473" 
 />
    <glyph glyph-name="trademark" unicode="&#x2122;" horiz-adv-x="2048" 
d="M70 1315v135h667v-135h-254v-709h-159v709h-254zM899 606v844h244l227 -647h6l228 647h243v-844h-159v705h-5l-245 -705h-129l-246 705h-4v-705h-160z" />
    <glyph glyph-name="uni25FC" unicode="&#x25fc;" horiz-adv-x="972" 
d="M0 0v973h973v-973h-973z" />
    <glyph glyph-name="uniFB01" unicode="&#xfb01;" 
d="M2 811v160h209v217q0 198 77 291.5t255 93.5q77 0 137 -14l-21 -164q-45 18 -104 18q-94 0 -126 -53t-32 -166v-223h219v-160h-221v-811h-184v811h-209zM758 1317q0 55 40 95t95 40t95 -40t40 -95t-40 -95t-95 -40t-95 40t-40 95zM799 0v971h184v-971h-184z" />
    <glyph glyph-name="uniFB02" unicode="&#xfb02;" 
d="M2 811v160h209v217q0 198 77 291.5t255 93.5q77 0 137 -14l-21 -164q-45 18 -104 18q-94 0 -126 -53t-32 -166v-223h219v-160h-221v-811h-184v811h-209zM801 0v1548h184v-1548h-184z" />
    <hkern u1="A" u2="&#x2019;" k="152" />
    <hkern u1="A" u2="y" k="37" />
    <hkern u1="A" u2="w" k="37" />
    <hkern u1="A" u2="v" k="37" />
    <hkern u1="A" u2="Y" k="152" />
    <hkern u1="A" u2="W" k="49" />
    <hkern u1="A" u2="V" k="94" />
    <hkern u1="A" u2="T" k="188" />
    <hkern u1="F" u2="A" k="113" />
    <hkern u1="F" u2="&#x2e;" k="322" />
    <hkern u1="F" u2="&#x2c;" k="322" />
    <hkern u1="L" u2="&#x2019;" k="227" />
    <hkern u1="L" u2="y" k="76" />
    <hkern u1="L" u2="Y" k="227" />
    <hkern u1="L" u2="W" k="113" />
    <hkern u1="L" u2="V" k="188" />
    <hkern u1="L" u2="T" k="188" />
    <hkern u1="P" u2="A" k="152" />
    <hkern u1="P" u2="&#x2e;" k="367" />
    <hkern u1="P" u2="&#x2c;" k="367" />
    <hkern u1="R" u2="Y" k="37" />
    <hkern u1="R" u2="T" k="37" />
    <hkern u1="T" u2="y" k="227" />
    <hkern u1="T" u2="w" k="227" />
    <hkern u1="T" u2="u" k="207" />
    <hkern u1="T" u2="s" k="227" />
    <hkern u1="T" u2="r" k="188" />
    <hkern u1="T" u2="o" k="227" />
    <hkern u1="T" u2="e" k="227" />
    <hkern u1="T" u2="c" k="227" />
    <hkern u1="T" u2="a" k="227" />
    <hkern u1="T" u2="A" k="188" />
    <hkern u1="T" u2="&#x3b;" k="227" />
    <hkern u1="T" u2="&#x3a;" k="227" />
    <hkern u1="T" u2="&#x2e;" k="227" />
    <hkern u1="T" u2="&#x2d;" k="264" />
    <hkern u1="T" u2="&#x2c;" k="227" />
    <hkern u1="V" u2="y" k="37" />
    <hkern u1="V" u2="u" k="76" />
    <hkern u1="V" u2="r" k="76" />
    <hkern u1="V" u2="o" k="113" />
    <hkern u1="V" u2="i" k="37" />
    <hkern u1="V" u2="e" k="113" />
    <hkern u1="V" u2="a" k="113" />
    <hkern u1="V" u2="A" k="94" />
    <hkern u1="V" u2="&#x3b;" k="94" />
    <hkern u1="V" u2="&#x3a;" k="94" />
    <hkern u1="V" u2="&#x2e;" k="264" />
    <hkern u1="V" u2="&#x2d;" k="113" />
    <hkern u1="V" u2="&#x2c;" k="264" />
    <hkern u1="W" u2="u" k="37" />
    <hkern u1="W" u2="r" k="37" />
    <hkern u1="W" u2="o" k="96" />
    <hkern u1="W" u2="e" k="96" />
    <hkern u1="W" u2="a" k="96" />
    <hkern u1="W" u2="A" k="49" />
    <hkern u1="W" u2="&#x3b;" k="37" />
    <hkern u1="W" u2="&#x3a;" k="37" />
    <hkern u1="W" u2="&#x2e;" k="184" />
    <hkern u1="W" u2="&#x2c;" k="184" />
    <hkern u1="Y" u2="v" k="113" />
    <hkern u1="Y" u2="u" k="152" />
    <hkern u1="Y" u2="q" k="188" />
    <hkern u1="Y" u2="p" k="152" />
    <hkern u1="Y" u2="o" k="227" />
    <hkern u1="Y" u2="i" k="76" />
    <hkern u1="Y" u2="e" k="227" />
    <hkern u1="Y" u2="a" k="188" />
    <hkern u1="Y" u2="A" k="152" />
    <hkern u1="Y" u2="&#x3b;" k="188" />
    <hkern u1="Y" u2="&#x3a;" k="188" />
    <hkern u1="Y" u2="&#x2e;" k="285" />
    <hkern u1="Y" u2="&#x2d;" k="227" />
    <hkern u1="Y" u2="&#x2c;" k="285" />
    <hkern u1="f" u2="&#x2019;" k="-37" />
    <hkern u1="f" u2="f" k="37" />
    <hkern u1="r" u2="q" k="37" />
    <hkern u1="r" u2="o" k="37" />
    <hkern u1="r" u2="g" k="37" />
    <hkern u1="r" u2="e" k="37" />
    <hkern u1="r" u2="d" k="37" />
    <hkern u1="r" u2="c" k="37" />
    <hkern u1="r" u2="&#x2e;" k="188" />
    <hkern u1="r" u2="&#x2d;" k="113" />
    <hkern u1="r" u2="&#x2c;" k="188" />
    <hkern u1="v" u2="&#x2e;" k="152" />
    <hkern u1="v" u2="&#x2c;" k="152" />
    <hkern u1="w" u2="&#x2e;" k="113" />
    <hkern u1="w" u2="&#x2c;" k="113" />
    <hkern u1="y" u2="&#x2e;" k="152" />
    <hkern u1="y" u2="&#x2c;" k="152" />
    <hkern u1="&#x2018;" u2="&#x2018;" k="207" />
    <hkern u1="&#x2019;" u2="&#x2019;" k="207" />
    <hkern u1="&#x2019;" u2="t" k="37" />
    <hkern u1="&#x2019;" u2="s" k="152" />
  </font>
</defs></svg>
